{
	"credit": "Credit: Ontvlambaar, Sammie_gaga",
	"textures": {
		"0": "block/oak_planks",
		"1": "block/green_concrete",
		"2": "block/stone",
		"particle": "block/oak_planks"
	},
	"elements": [
		{
			"from": [23.5, 9.954, 5.62273],
			"to": [24.09827, 10.774, 6.221],
			"rotation": {"angle": 22.5, "axis": "x", "origin": [24.12, 11.43, 5.36]},
			"faces": {
				"north": {"uv": [0, 3.498, 16, 0], "texture": "#1"},
				"east": {"uv": [0, 3.498, 16, 0], "texture": "#1"},
				"south": {"uv": [0, 3.498, 16, 0], "texture": "#1"},
				"west": {"uv": [0, 3.498, 16, 0], "texture": "#1"},
				"up": {"uv": [0, 3.498, 16, 0], "texture": "#1"},
				"down": {"uv": [0, 3.498, 16, 0], "texture": "#1"}
			}
		},
		{
			"from": [23.5, 10.487, 5.3026],
			"to": [24.09827, 10.733, 5.90087],
			"faces": {
				"north": {"uv": [16, 0, 0, 3.498], "texture": "#1"},
				"east": {"uv": [16, 0, 0, 3.498], "texture": "#1"},
				"south": {"uv": [16, 0, 0, 3.498], "texture": "#1"},
				"west": {"uv": [16, 0, 0, 3.498], "texture": "#1"},
				"up": {"uv": [0, 3.498, 16, 0], "texture": "#1"},
				"down": {"uv": [0, 3.498, 16, 0], "texture": "#1"}
			}
		},
		{
			"from": [23.5, 11.73996, 3.966],
			"to": [24.09827, 12.33823, 14.426],
			"faces": {
				"north": {"uv": [0, 0, 16, 3.498], "rotation": 180, "texture": "#1"},
				"east": {"uv": [0, 0, 16, 3.498], "rotation": 90, "texture": "#1"},
				"south": {"uv": [0, 0, 16, 3.498], "texture": "#1"},
				"west": {"uv": [0, 0, 16, 3.498], "rotation": 270, "texture": "#1"},
				"up": {"uv": [0, 0, 16, 3.498], "texture": "#1"},
				"down": {"uv": [0, 0, 16, 3.498], "rotation": 180, "texture": "#1"}
			}
		},
		{
			"from": [23.5, 11.02, 2.1251],
			"to": [24.09827, 11.84, 2.72337],
			"rotation": {"angle": 45, "axis": "x", "origin": [24.12, 10.61, 2.9]},
			"faces": {
				"north": {"uv": [16, 0, 0, 3.498], "texture": "#1"},
				"east": {"uv": [16, 0, 0, 3.498], "texture": "#1"},
				"south": {"uv": [16, 0, 0, 3.498], "texture": "#1"},
				"west": {"uv": [16, 0, 0, 3.498], "texture": "#1"},
				"up": {"uv": [0, 3.498, 16, 0], "texture": "#1"},
				"down": {"uv": [0, 3.498, 16, 0], "texture": "#1"}
			}
		},
		{
			"from": [23.5, 11.5694, 3.474],
			"to": [24.09827, 12.16767, 4.294],
			"rotation": {"angle": -22.5, "axis": "x", "origin": [24.12, 11.43, 3.72]},
			"faces": {
				"north": {"uv": [16, 0, 0, 3.498], "texture": "#1"},
				"east": {"uv": [0, 3.498, 16, 0], "rotation": 90, "texture": "#1"},
				"south": {"uv": [16, 0, 0, 3.498], "rotation": 180, "texture": "#1"},
				"west": {"uv": [0, 3.498, 16, 0], "rotation": 270, "texture": "#1"},
				"up": {"uv": [0, 3.498, 16, 0], "texture": "#1"},
				"down": {"uv": [0, 3.498, 16, 0], "rotation": 180, "texture": "#1"}
			}
		},
		{
			"from": [23.5, 10.446, 2.039],
			"to": [24.09827, 11.266, 2.63727],
			"rotation": {"angle": 22.5, "axis": "x", "origin": [24.12, 9.79, 2.9]},
			"faces": {
				"north": {"uv": [16, 0, 0, 3.498], "texture": "#1"},
				"east": {"uv": [16, 0, 0, 3.498], "texture": "#1"},
				"south": {"uv": [16, 0, 0, 3.498], "texture": "#1"},
				"west": {"uv": [16, 0, 0, 3.498], "texture": "#1"},
				"up": {"uv": [0, 3.498, 16, 0], "texture": "#1"},
				"down": {"uv": [0, 3.498, 16, 0], "texture": "#1"}
			}
		},
		{
			"from": [23.5, 9.954, 2.039],
			"to": [24.09827, 10.774, 2.63727],
			"rotation": {"angle": -22.5, "axis": "x", "origin": [24.12, 11.43, 2.9]},
			"faces": {
				"north": {"uv": [16, 3.498, 0, 0], "texture": "#1"},
				"east": {"uv": [16, 3.498, 0, 0], "texture": "#1"},
				"south": {"uv": [16, 3.498, 0, 0], "texture": "#1"},
				"west": {"uv": [16, 3.498, 0, 0], "texture": "#1"},
				"up": {"uv": [0, 0, 16, 3.498], "texture": "#1"},
				"down": {"uv": [0, 0, 16, 3.498], "texture": "#1"}
			}
		},
		{
			"from": [23.5, 9.38, 2.1251],
			"to": [24.09827, 10.2, 2.72337],
			"rotation": {"angle": -45, "axis": "x", "origin": [24.12, 10.61, 2.9]},
			"faces": {
				"north": {"uv": [16, 3.498, 0, 0], "texture": "#1"},
				"east": {"uv": [16, 3.498, 0, 0], "texture": "#1"},
				"south": {"uv": [16, 3.498, 0, 0], "texture": "#1"},
				"west": {"uv": [16, 3.498, 0, 0], "texture": "#1"},
				"up": {"uv": [0, 0, 16, 3.498], "texture": "#1"},
				"down": {"uv": [0, 0, 16, 3.498], "texture": "#1"}
			}
		},
		{
			"from": [23.5, 9.05233, 3.474],
			"to": [24.09827, 9.6506, 4.294],
			"rotation": {"angle": 22.5, "axis": "x", "origin": [24.12, 9.79, 3.72]},
			"faces": {
				"north": {"uv": [16, 3.498, 0, 0], "texture": "#1"},
				"east": {"uv": [16, 3.498, 0, 0], "rotation": 90, "texture": "#1"},
				"south": {"uv": [16, 3.498, 0, 0], "rotation": 180, "texture": "#1"},
				"west": {"uv": [16, 3.498, 0, 0], "rotation": 270, "texture": "#1"},
				"up": {"uv": [0, 0, 16, 3.498], "rotation": 180, "texture": "#1"},
				"down": {"uv": [0, 0, 16, 3.498], "texture": "#1"}
			}
		},
		{
			"from": [23.5, 9.05233, 3.966],
			"to": [24.09827, 9.6506, 4.786],
			"rotation": {"angle": -22.5, "axis": "x", "origin": [24.12, 9.79, 4.54]},
			"faces": {
				"north": {"uv": [0, 3.498, 16, 0], "rotation": 180, "texture": "#1"},
				"east": {"uv": [16, 0, 0, 3.498], "rotation": 90, "texture": "#1"},
				"south": {"uv": [0, 3.498, 16, 0], "texture": "#1"},
				"west": {"uv": [16, 0, 0, 3.498], "rotation": 270, "texture": "#1"},
				"up": {"uv": [0, 3.498, 16, 0], "rotation": 180, "texture": "#1"},
				"down": {"uv": [0, 3.498, 16, 0], "texture": "#1"}
			}
		},
		{
			"from": [23.5, 9.38, 5.53663],
			"to": [24.09827, 10.2, 6.1349],
			"rotation": {"angle": 45, "axis": "x", "origin": [24.12, 10.61, 5.36]},
			"faces": {
				"north": {"uv": [0, 3.498, 16, 0], "texture": "#1"},
				"east": {"uv": [0, 3.498, 16, 0], "texture": "#1"},
				"south": {"uv": [0, 3.498, 16, 0], "texture": "#1"},
				"west": {"uv": [0, 3.498, 16, 0], "texture": "#1"},
				"up": {"uv": [0, 3.498, 16, 0], "texture": "#1"},
				"down": {"uv": [0, 3.498, 16, 0], "texture": "#1"}
			}
		},
		{
			"from": [23.5, 8.9208, 3.9332],
			"to": [24.09827, 9.4128, 4.3432],
			"faces": {
				"north": {"uv": [16, 0, 0, 3.498], "texture": "#1"},
				"east": {"uv": [16, 0, 0, 3.498], "texture": "#1"},
				"south": {"uv": [16, 0, 0, 3.498], "texture": "#1"},
				"west": {"uv": [16, 0, 0, 3.498], "texture": "#1"},
				"up": {"uv": [0, 3.498, 16, 0], "texture": "#1"},
				"down": {"uv": [0, 3.498, 16, 0], "texture": "#1"}
			}
		},
		{
			"from": [23.5, 10.487, 2.3547],
			"to": [24.09827, 10.733, 2.95297],
			"faces": {
				"north": {"uv": [16, 0, 0, 3.498], "texture": "#1"},
				"east": {"uv": [16, 0, 0, 3.498], "texture": "#1"},
				"south": {"uv": [16, 0, 0, 3.498], "texture": "#1"},
				"west": {"uv": [16, 0, 0, 3.498], "texture": "#1"},
				"up": {"uv": [0, 3.498, 16, 0], "texture": "#1"},
				"down": {"uv": [0, 3.498, 16, 0], "texture": "#1"}
			}
		},
		{
			"from": [-7.3, 9.954, 5.62273],
			"to": [-6.70173, 10.774, 6.221],
			"rotation": {"angle": 22.5, "axis": "x", "origin": [-6.68, 11.43, 5.36]},
			"faces": {
				"north": {"uv": [0, 3.498, 16, 0], "texture": "#1"},
				"east": {"uv": [0, 3.498, 16, 0], "texture": "#1"},
				"south": {"uv": [0, 3.498, 16, 0], "texture": "#1"},
				"west": {"uv": [0, 3.498, 16, 0], "texture": "#1"},
				"up": {"uv": [0, 3.498, 16, 0], "texture": "#1"},
				"down": {"uv": [0, 3.498, 16, 0], "texture": "#1"}
			}
		},
		{
			"from": [-7.3, 10.487, 5.3026],
			"to": [-6.70173, 10.733, 5.90087],
			"rotation": {"angle": 0, "axis": "y", "origin": [-22.8, 8, 8]},
			"faces": {
				"north": {"uv": [16, 0, 0, 3.498], "texture": "#1"},
				"east": {"uv": [16, 0, 0, 3.498], "texture": "#1"},
				"south": {"uv": [16, 0, 0, 3.498], "texture": "#1"},
				"west": {"uv": [16, 0, 0, 3.498], "texture": "#1"},
				"up": {"uv": [0, 3.498, 16, 0], "texture": "#1"},
				"down": {"uv": [0, 3.498, 16, 0], "texture": "#1"}
			}
		},
		{
			"from": [-7.3, 11.73996, 3.966],
			"to": [-6.70173, 12.33823, 14.426],
			"rotation": {"angle": 0, "axis": "y", "origin": [-22.8, 8, 8]},
			"faces": {
				"north": {"uv": [0, 0, 16, 3.498], "rotation": 180, "texture": "#1"},
				"east": {"uv": [0, 0, 16, 3.498], "rotation": 90, "texture": "#1"},
				"south": {"uv": [0, 0, 16, 3.498], "texture": "#1"},
				"west": {"uv": [0, 0, 16, 3.498], "rotation": 270, "texture": "#1"},
				"up": {"uv": [0, 0, 16, 3.498], "texture": "#1"},
				"down": {"uv": [0, 0, 16, 3.498], "rotation": 180, "texture": "#1"}
			}
		},
		{
			"from": [-7.3, 11.02, 2.1251],
			"to": [-6.70173, 11.84, 2.72337],
			"rotation": {"angle": 45, "axis": "x", "origin": [-6.68, 10.61, 2.9]},
			"faces": {
				"north": {"uv": [16, 0, 0, 3.498], "texture": "#1"},
				"east": {"uv": [16, 0, 0, 3.498], "texture": "#1"},
				"south": {"uv": [16, 0, 0, 3.498], "texture": "#1"},
				"west": {"uv": [16, 0, 0, 3.498], "texture": "#1"},
				"up": {"uv": [0, 3.498, 16, 0], "texture": "#1"},
				"down": {"uv": [0, 3.498, 16, 0], "texture": "#1"}
			}
		},
		{
			"from": [-7.3, 11.5694, 3.474],
			"to": [-6.70173, 12.16767, 4.294],
			"rotation": {"angle": -22.5, "axis": "x", "origin": [-6.68, 11.43, 3.72]},
			"faces": {
				"north": {"uv": [16, 0, 0, 3.498], "texture": "#1"},
				"east": {"uv": [0, 3.498, 16, 0], "rotation": 90, "texture": "#1"},
				"south": {"uv": [16, 0, 0, 3.498], "rotation": 180, "texture": "#1"},
				"west": {"uv": [0, 3.498, 16, 0], "rotation": 270, "texture": "#1"},
				"up": {"uv": [0, 3.498, 16, 0], "texture": "#1"},
				"down": {"uv": [0, 3.498, 16, 0], "rotation": 180, "texture": "#1"}
			}
		},
		{
			"from": [-7.3, 10.446, 2.039],
			"to": [-6.70173, 11.266, 2.63727],
			"rotation": {"angle": 22.5, "axis": "x", "origin": [-6.68, 9.79, 2.9]},
			"faces": {
				"north": {"uv": [16, 0, 0, 3.498], "texture": "#1"},
				"east": {"uv": [16, 0, 0, 3.498], "texture": "#1"},
				"south": {"uv": [16, 0, 0, 3.498], "texture": "#1"},
				"west": {"uv": [16, 0, 0, 3.498], "texture": "#1"},
				"up": {"uv": [0, 3.498, 16, 0], "texture": "#1"},
				"down": {"uv": [0, 3.498, 16, 0], "texture": "#1"}
			}
		},
		{
			"from": [-7.3, 9.954, 2.039],
			"to": [-6.70173, 10.774, 2.63727],
			"rotation": {"angle": -22.5, "axis": "x", "origin": [-6.68, 11.43, 2.9]},
			"faces": {
				"north": {"uv": [16, 3.498, 0, 0], "texture": "#1"},
				"east": {"uv": [16, 3.498, 0, 0], "texture": "#1"},
				"south": {"uv": [16, 3.498, 0, 0], "texture": "#1"},
				"west": {"uv": [16, 3.498, 0, 0], "texture": "#1"},
				"up": {"uv": [0, 0, 16, 3.498], "texture": "#1"},
				"down": {"uv": [0, 0, 16, 3.498], "texture": "#1"}
			}
		},
		{
			"from": [-7.3, 9.38, 2.1251],
			"to": [-6.70173, 10.2, 2.72337],
			"rotation": {"angle": -45, "axis": "x", "origin": [-6.68, 10.61, 2.9]},
			"faces": {
				"north": {"uv": [16, 3.498, 0, 0], "texture": "#1"},
				"east": {"uv": [16, 3.498, 0, 0], "texture": "#1"},
				"south": {"uv": [16, 3.498, 0, 0], "texture": "#1"},
				"west": {"uv": [16, 3.498, 0, 0], "texture": "#1"},
				"up": {"uv": [0, 0, 16, 3.498], "texture": "#1"},
				"down": {"uv": [0, 0, 16, 3.498], "texture": "#1"}
			}
		},
		{
			"from": [-7.3, 9.05233, 3.474],
			"to": [-6.70173, 9.6506, 4.294],
			"rotation": {"angle": 22.5, "axis": "x", "origin": [-6.68, 9.79, 3.72]},
			"faces": {
				"north": {"uv": [16, 3.498, 0, 0], "texture": "#1"},
				"east": {"uv": [16, 3.498, 0, 0], "rotation": 90, "texture": "#1"},
				"south": {"uv": [16, 3.498, 0, 0], "rotation": 180, "texture": "#1"},
				"west": {"uv": [16, 3.498, 0, 0], "rotation": 270, "texture": "#1"},
				"up": {"uv": [0, 0, 16, 3.498], "rotation": 180, "texture": "#1"},
				"down": {"uv": [0, 0, 16, 3.498], "texture": "#1"}
			}
		},
		{
			"from": [-7.3, 9.05233, 3.966],
			"to": [-6.70173, 9.6506, 4.786],
			"rotation": {"angle": -22.5, "axis": "x", "origin": [-6.68, 9.79, 4.54]},
			"faces": {
				"north": {"uv": [0, 3.498, 16, 0], "rotation": 180, "texture": "#1"},
				"east": {"uv": [16, 0, 0, 3.498], "rotation": 90, "texture": "#1"},
				"south": {"uv": [0, 3.498, 16, 0], "texture": "#1"},
				"west": {"uv": [16, 0, 0, 3.498], "rotation": 270, "texture": "#1"},
				"up": {"uv": [0, 3.498, 16, 0], "rotation": 180, "texture": "#1"},
				"down": {"uv": [0, 3.498, 16, 0], "texture": "#1"}
			}
		},
		{
			"from": [-7.3, 9.38, 5.53663],
			"to": [-6.70173, 10.2, 6.1349],
			"rotation": {"angle": 45, "axis": "x", "origin": [-6.68, 10.61, 5.36]},
			"faces": {
				"north": {"uv": [0, 3.498, 16, 0], "texture": "#1"},
				"east": {"uv": [0, 3.498, 16, 0], "texture": "#1"},
				"south": {"uv": [0, 3.498, 16, 0], "texture": "#1"},
				"west": {"uv": [0, 3.498, 16, 0], "texture": "#1"},
				"up": {"uv": [0, 3.498, 16, 0], "texture": "#1"},
				"down": {"uv": [0, 3.498, 16, 0], "texture": "#1"}
			}
		},
		{
			"from": [-7.3, 8.9208, 3.9332],
			"to": [-6.70173, 9.4128, 4.3432],
			"rotation": {"angle": 0, "axis": "y", "origin": [-22.8, 8, 8]},
			"faces": {
				"north": {"uv": [16, 0, 0, 3.498], "texture": "#1"},
				"east": {"uv": [16, 0, 0, 3.498], "texture": "#1"},
				"south": {"uv": [16, 0, 0, 3.498], "texture": "#1"},
				"west": {"uv": [16, 0, 0, 3.498], "texture": "#1"},
				"up": {"uv": [0, 3.498, 16, 0], "texture": "#1"},
				"down": {"uv": [0, 3.498, 16, 0], "texture": "#1"}
			}
		},
		{
			"from": [-7.3, 10.487, 2.3547],
			"to": [-6.70173, 10.733, 2.95297],
			"rotation": {"angle": 0, "axis": "y", "origin": [-22.8, 8, 8]},
			"faces": {
				"north": {"uv": [16, 0, 0, 3.498], "texture": "#1"},
				"east": {"uv": [16, 0, 0, 3.498], "texture": "#1"},
				"south": {"uv": [16, 0, 0, 3.498], "texture": "#1"},
				"west": {"uv": [16, 0, 0, 3.498], "texture": "#1"},
				"up": {"uv": [0, 3.498, 16, 0], "texture": "#1"},
				"down": {"uv": [0, 3.498, 16, 0], "texture": "#1"}
			}
		},
		{
			"from": [22, 0, 2],
			"to": [24, 1, 4],
			"faces": {
				"north": {"uv": [0, 0, 16, 3.498], "texture": "#1"},
				"east": {"uv": [0, 0, 16, 3.498], "texture": "#1"},
				"south": {"uv": [0, 0, 16, 3.498], "texture": "#1"},
				"west": {"uv": [0, 0, 16, 3.498], "texture": "#1"},
				"up": {"uv": [0, 0, 16, 3.498], "texture": "#1"},
				"down": {"uv": [0, 0, 16, 3.498], "texture": "#1"}
			}
		},
		{
			"from": [22.6352, 0, 2.6352],
			"to": [23.3648, 2, 3.3648],
			"faces": {
				"north": {"uv": [16, 0, 0, 3.498], "texture": "#1"},
				"east": {"uv": [16, 0, 0, 3.498], "texture": "#1"},
				"south": {"uv": [16, 0, 0, 3.498], "texture": "#1"},
				"west": {"uv": [16, 0, 0, 3.498], "texture": "#1"},
				"up": {"uv": [0, 3.498, 16, 0], "texture": "#1"},
				"down": {"uv": [0, 3.498, 16, 0], "texture": "#1"}
			}
		},
		{
			"from": [22.6352, 1.82, 2.4754],
			"to": [23.3648, 3.82, 3.205],
			"rotation": {"angle": 22.5, "axis": "x", "origin": [23, 1.5, 3]},
			"faces": {
				"north": {"uv": [16, 0, 0, 3.498], "texture": "#1"},
				"east": {"uv": [16, 0, 0, 3.498], "texture": "#1"},
				"south": {"uv": [16, 0, 0, 3.498], "texture": "#1"},
				"west": {"uv": [16, 0, 0, 3.498], "texture": "#1"},
				"up": {"uv": [0, 3.498, 16, 0], "texture": "#1"},
				"down": {"uv": [0, 3.498, 16, 0], "texture": "#1"}
			}
		},
		{
			"from": [22.6352, 3.3, 3.3404],
			"to": [23.3648, 5.3, 4.07],
			"rotation": {"angle": 45, "axis": "x", "origin": [23, 3.5, 4]},
			"faces": {
				"north": {"uv": [16, 0, 0, 3.498], "texture": "#1"},
				"east": {"uv": [16, 0, 0, 3.498], "texture": "#1"},
				"south": {"uv": [16, 0, 0, 3.498], "texture": "#1"},
				"west": {"uv": [16, 0, 0, 3.498], "texture": "#1"},
				"up": {"uv": [0, 3.498, 16, 0], "texture": "#1"},
				"down": {"uv": [0, 3.498, 16, 0], "texture": "#1"}
			}
		},
		{
			"from": [22.6352, 4.878, 5.7],
			"to": [23.3648, 5.6076, 8.7],
			"faces": {
				"north": {"uv": [16, 0, 0, 3.498], "texture": "#1"},
				"east": {"uv": [0, 3.498, 16, 0], "rotation": 90, "texture": "#1"},
				"south": {"uv": [16, 0, 0, 3.498], "rotation": 180, "texture": "#1"},
				"west": {"uv": [0, 3.498, 16, 0], "rotation": 270, "texture": "#1"},
				"up": {"uv": [0, 3.498, 16, 0], "texture": "#1"},
				"down": {"uv": [0, 3.498, 16, 0], "rotation": 180, "texture": "#1"}
			}
		},
		{
			"from": [22.6352, 4.55, 5.93],
			"to": [23.3648, 8.3, 6.6596],
			"rotation": {"angle": -45, "axis": "x", "origin": [23, 5.5, 6]},
			"faces": {
				"north": {"uv": [0, 0, 16, 3.498], "texture": "#1"},
				"east": {"uv": [0, 0, 16, 3.498], "texture": "#1"},
				"south": {"uv": [0, 0, 16, 3.498], "texture": "#1"},
				"west": {"uv": [0, 0, 16, 3.498], "texture": "#1"},
				"up": {"uv": [0, 0, 16, 3.498], "texture": "#1"},
				"down": {"uv": [0, 0, 16, 3.498], "texture": "#1"}
			}
		},
		{
			"from": [22.6352, 4.52, 5.1],
			"to": [23.3648, 5.2496, 6.1],
			"rotation": {"angle": -22.5, "axis": "x", "origin": [23, 4.5, 5]},
			"faces": {
				"north": {"uv": [16, 0, 0, 3.498], "texture": "#1"},
				"east": {"uv": [0, 3.498, 16, 0], "rotation": 90, "texture": "#1"},
				"south": {"uv": [16, 0, 0, 3.498], "rotation": 180, "texture": "#1"},
				"west": {"uv": [0, 3.498, 16, 0], "rotation": 270, "texture": "#1"},
				"up": {"uv": [0, 3.498, 16, 0], "texture": "#1"},
				"down": {"uv": [0, 3.498, 16, 0], "rotation": 180, "texture": "#1"}
			}
		},
		{
			"from": [22.6352, 4.878, 7.3],
			"to": [23.3648, 5.6076, 10.3],
			"faces": {
				"north": {"uv": [0, 0, 16, 3.498], "rotation": 180, "texture": "#1"},
				"east": {"uv": [0, 0, 16, 3.498], "rotation": 90, "texture": "#1"},
				"south": {"uv": [0, 0, 16, 3.498], "texture": "#1"},
				"west": {"uv": [0, 0, 16, 3.498], "rotation": 270, "texture": "#1"},
				"up": {"uv": [0, 0, 16, 3.498], "texture": "#1"},
				"down": {"uv": [0, 0, 16, 3.498], "rotation": 180, "texture": "#1"}
			}
		},
		{
			"from": [22.6352, 4.55, 9.3404],
			"to": [23.3648, 8.3, 10.07],
			"rotation": {"angle": 45, "axis": "x", "origin": [23, 5.5, 10]},
			"faces": {
				"north": {"uv": [16, 0, 0, 3.498], "texture": "#1"},
				"east": {"uv": [16, 0, 0, 3.498], "texture": "#1"},
				"south": {"uv": [16, 0, 0, 3.498], "texture": "#1"},
				"west": {"uv": [16, 0, 0, 3.498], "texture": "#1"},
				"up": {"uv": [0, 3.498, 16, 0], "texture": "#1"},
				"down": {"uv": [0, 3.498, 16, 0], "texture": "#1"}
			}
		},
		{
			"from": [22.6352, 3.3, 11.93],
			"to": [23.3648, 5.3, 12.6596],
			"rotation": {"angle": -45, "axis": "x", "origin": [23, 3.5, 12]},
			"faces": {
				"north": {"uv": [0, 0, 16, 3.498], "texture": "#1"},
				"east": {"uv": [0, 0, 16, 3.498], "texture": "#1"},
				"south": {"uv": [0, 0, 16, 3.498], "texture": "#1"},
				"west": {"uv": [0, 0, 16, 3.498], "texture": "#1"},
				"up": {"uv": [0, 0, 16, 3.498], "texture": "#1"},
				"down": {"uv": [0, 0, 16, 3.498], "texture": "#1"}
			}
		},
		{
			"from": [22.6352, 4.52, 9.9],
			"to": [23.3648, 5.2496, 10.9],
			"rotation": {"angle": 22.5, "axis": "x", "origin": [23, 4.5, 11]},
			"faces": {
				"north": {"uv": [0, 0, 16, 3.498], "rotation": 180, "texture": "#1"},
				"east": {"uv": [0, 0, 16, 3.498], "rotation": 90, "texture": "#1"},
				"south": {"uv": [0, 0, 16, 3.498], "texture": "#1"},
				"west": {"uv": [0, 0, 16, 3.498], "rotation": 270, "texture": "#1"},
				"up": {"uv": [0, 0, 16, 3.498], "texture": "#1"},
				"down": {"uv": [0, 0, 16, 3.498], "rotation": 180, "texture": "#1"}
			}
		},
		{
			"from": [22.6352, 1.82, 12.795],
			"to": [23.3648, 3.82, 13.5246],
			"rotation": {"angle": -22.5, "axis": "x", "origin": [23, 1.5, 13]},
			"faces": {
				"north": {"uv": [0, 0, 16, 3.498], "texture": "#1"},
				"east": {"uv": [0, 0, 16, 3.498], "texture": "#1"},
				"south": {"uv": [0, 0, 16, 3.498], "texture": "#1"},
				"west": {"uv": [0, 0, 16, 3.498], "texture": "#1"},
				"up": {"uv": [0, 0, 16, 3.498], "texture": "#1"},
				"down": {"uv": [0, 0, 16, 3.498], "texture": "#1"}
			}
		},
		{
			"from": [22.6352, 0, 12.6352],
			"to": [23.3648, 2, 13.3648],
			"faces": {
				"north": {"uv": [0, 0, 16, 3.498], "texture": "#1"},
				"east": {"uv": [0, 0, 16, 3.498], "texture": "#1"},
				"south": {"uv": [0, 0, 16, 3.498], "texture": "#1"},
				"west": {"uv": [0, 0, 16, 3.498], "texture": "#1"},
				"up": {"uv": [0, 0, 16, 3.498], "texture": "#1"},
				"down": {"uv": [0, 0, 16, 3.498], "texture": "#1"}
			}
		},
		{
			"from": [22, 0, 12],
			"to": [24, 1, 14],
			"faces": {
				"north": {"uv": [0, 0, 16, 3.498], "texture": "#1"},
				"east": {"uv": [0, 0, 16, 3.498], "texture": "#1"},
				"south": {"uv": [0, 0, 16, 3.498], "texture": "#1"},
				"west": {"uv": [0, 0, 16, 3.498], "texture": "#1"},
				"up": {"uv": [0, 0, 16, 3.498], "texture": "#1"},
				"down": {"uv": [0, 0, 16, 3.498], "texture": "#1"}
			}
		},
		{
			"from": [22.6352, 2.52, 9.9],
			"to": [23.3648, 3.2496, 12.9],
			"rotation": {"angle": 22.5, "axis": "x", "origin": [23, 2.5, 11]},
			"faces": {
				"north": {"uv": [0, 0, 16, 3.498], "rotation": 180, "texture": "#1"},
				"east": {"uv": [0, 0, 16, 3.498], "rotation": 90, "texture": "#1"},
				"south": {"uv": [0, 0, 16, 3.498], "texture": "#1"},
				"west": {"uv": [0, 0, 16, 3.498], "rotation": 270, "texture": "#1"},
				"up": {"uv": [0, 0, 16, 3.498], "texture": "#1"},
				"down": {"uv": [0, 0, 16, 3.498], "rotation": 180, "texture": "#1"}
			}
		},
		{
			"from": [22.6352, 2.878, 5.7],
			"to": [23.3648, 3.6076, 10.3],
			"rotation": {"angle": 0, "axis": "y", "origin": [8, 6, 8]},
			"faces": {
				"north": {"uv": [16, 0, 0, 3.498], "texture": "#1"},
				"east": {"uv": [0, 3.498, 16, 0], "rotation": 90, "texture": "#1"},
				"south": {"uv": [16, 0, 0, 3.498], "rotation": 180, "texture": "#1"},
				"west": {"uv": [0, 3.498, 16, 0], "rotation": 270, "texture": "#1"},
				"up": {"uv": [0, 3.498, 16, 0], "texture": "#1"},
				"down": {"uv": [0, 3.498, 16, 0], "rotation": 180, "texture": "#1"}
			}
		},
		{
			"from": [22.6352, 2.52, 3.1],
			"to": [23.3648, 3.2496, 6.1],
			"rotation": {"angle": -22.5, "axis": "x", "origin": [23, 2.5, 5]},
			"faces": {
				"north": {"uv": [16, 0, 0, 3.498], "texture": "#1"},
				"east": {"uv": [0, 3.498, 16, 0], "rotation": 90, "texture": "#1"},
				"south": {"uv": [16, 0, 0, 3.498], "rotation": 180, "texture": "#1"},
				"west": {"uv": [0, 3.498, 16, 0], "rotation": 270, "texture": "#1"},
				"up": {"uv": [0, 3.498, 16, 0], "texture": "#1"},
				"down": {"uv": [0, 3.498, 16, 0], "rotation": 180, "texture": "#1"}
			}
		},
		{
			"from": [7, 0, 2],
			"to": [9, 1, 4],
			"rotation": {"angle": 0, "axis": "y", "origin": [-7, 8, 8]},
			"faces": {
				"north": {"uv": [0, 0, 16, 3.498], "texture": "#1"},
				"east": {"uv": [0, 0, 16, 3.498], "texture": "#1"},
				"south": {"uv": [0, 0, 16, 3.498], "texture": "#1"},
				"west": {"uv": [0, 0, 16, 3.498], "texture": "#1"},
				"up": {"uv": [0, 0, 16, 3.498], "texture": "#1"},
				"down": {"uv": [0, 0, 16, 3.498], "texture": "#1"}
			}
		},
		{
			"from": [7.6352, 0, 2.6352],
			"to": [8.3648, 2, 3.3648],
			"rotation": {"angle": 0, "axis": "y", "origin": [-7, 8, 8]},
			"faces": {
				"north": {"uv": [16, 0, 0, 3.498], "texture": "#1"},
				"east": {"uv": [16, 0, 0, 3.498], "texture": "#1"},
				"south": {"uv": [16, 0, 0, 3.498], "texture": "#1"},
				"west": {"uv": [16, 0, 0, 3.498], "texture": "#1"},
				"up": {"uv": [0, 3.498, 16, 0], "texture": "#1"},
				"down": {"uv": [0, 3.498, 16, 0], "texture": "#1"}
			}
		},
		{
			"from": [7.6352, 1.82, 2.4754],
			"to": [8.3648, 3.82, 3.205],
			"rotation": {"angle": 22.5, "axis": "x", "origin": [8, 1.5, 3]},
			"faces": {
				"north": {"uv": [16, 0, 0, 3.498], "texture": "#1"},
				"east": {"uv": [16, 0, 0, 3.498], "texture": "#1"},
				"south": {"uv": [16, 0, 0, 3.498], "texture": "#1"},
				"west": {"uv": [16, 0, 0, 3.498], "texture": "#1"},
				"up": {"uv": [0, 3.498, 16, 0], "texture": "#1"},
				"down": {"uv": [0, 3.498, 16, 0], "texture": "#1"}
			}
		},
		{
			"from": [7.6352, 3.3, 3.3404],
			"to": [8.3648, 5.3, 4.07],
			"rotation": {"angle": 45, "axis": "x", "origin": [8, 3.5, 4]},
			"faces": {
				"north": {"uv": [16, 0, 0, 3.498], "texture": "#1"},
				"east": {"uv": [16, 0, 0, 3.498], "texture": "#1"},
				"south": {"uv": [16, 0, 0, 3.498], "texture": "#1"},
				"west": {"uv": [16, 0, 0, 3.498], "texture": "#1"},
				"up": {"uv": [0, 3.498, 16, 0], "texture": "#1"},
				"down": {"uv": [0, 3.498, 16, 0], "texture": "#1"}
			}
		},
		{
			"from": [7.6352, 4.878, 5.7],
			"to": [8.3648, 5.6076, 8.7],
			"rotation": {"angle": 0, "axis": "y", "origin": [-7, 8, 8]},
			"faces": {
				"north": {"uv": [16, 0, 0, 3.498], "texture": "#1"},
				"east": {"uv": [0, 3.498, 16, 0], "rotation": 90, "texture": "#1"},
				"south": {"uv": [16, 0, 0, 3.498], "rotation": 180, "texture": "#1"},
				"west": {"uv": [0, 3.498, 16, 0], "rotation": 270, "texture": "#1"},
				"up": {"uv": [0, 3.498, 16, 0], "texture": "#1"},
				"down": {"uv": [0, 3.498, 16, 0], "rotation": 180, "texture": "#1"}
			}
		},
		{
			"from": [7.6352, 4.55, 5.93],
			"to": [8.3648, 8.3, 6.6596],
			"rotation": {"angle": -45, "axis": "x", "origin": [8, 5.5, 6]},
			"faces": {
				"north": {"uv": [0, 0, 16, 3.498], "texture": "#1"},
				"east": {"uv": [0, 0, 16, 3.498], "texture": "#1"},
				"south": {"uv": [0, 0, 16, 3.498], "texture": "#1"},
				"west": {"uv": [0, 0, 16, 3.498], "texture": "#1"},
				"up": {"uv": [0, 0, 16, 3.498], "texture": "#1"},
				"down": {"uv": [0, 0, 16, 3.498], "texture": "#1"}
			}
		},
		{
			"from": [7.6352, 4.52, 5.1],
			"to": [8.3648, 5.2496, 6.1],
			"rotation": {"angle": -22.5, "axis": "x", "origin": [8, 4.5, 5]},
			"faces": {
				"north": {"uv": [16, 0, 0, 3.498], "texture": "#1"},
				"east": {"uv": [0, 3.498, 16, 0], "rotation": 90, "texture": "#1"},
				"south": {"uv": [16, 0, 0, 3.498], "rotation": 180, "texture": "#1"},
				"west": {"uv": [0, 3.498, 16, 0], "rotation": 270, "texture": "#1"},
				"up": {"uv": [0, 3.498, 16, 0], "texture": "#1"},
				"down": {"uv": [0, 3.498, 16, 0], "rotation": 180, "texture": "#1"}
			}
		},
		{
			"from": [7.6352, 4.878, 7.3],
			"to": [8.3648, 5.6076, 10.3],
			"rotation": {"angle": 0, "axis": "y", "origin": [-7, 8, 8]},
			"faces": {
				"north": {"uv": [0, 0, 16, 3.498], "rotation": 180, "texture": "#1"},
				"east": {"uv": [0, 0, 16, 3.498], "rotation": 90, "texture": "#1"},
				"south": {"uv": [0, 0, 16, 3.498], "texture": "#1"},
				"west": {"uv": [0, 0, 16, 3.498], "rotation": 270, "texture": "#1"},
				"up": {"uv": [0, 0, 16, 3.498], "texture": "#1"},
				"down": {"uv": [0, 0, 16, 3.498], "rotation": 180, "texture": "#1"}
			}
		},
		{
			"from": [7.6352, 4.55, 9.3404],
			"to": [8.3648, 8.3, 10.07],
			"rotation": {"angle": 45, "axis": "x", "origin": [8, 5.5, 10]},
			"faces": {
				"north": {"uv": [16, 0, 0, 3.498], "texture": "#1"},
				"east": {"uv": [16, 0, 0, 3.498], "texture": "#1"},
				"south": {"uv": [16, 0, 0, 3.498], "texture": "#1"},
				"west": {"uv": [16, 0, 0, 3.498], "texture": "#1"},
				"up": {"uv": [0, 3.498, 16, 0], "texture": "#1"},
				"down": {"uv": [0, 3.498, 16, 0], "texture": "#1"}
			}
		},
		{
			"from": [7.6352, 3.3, 11.93],
			"to": [8.3648, 5.3, 12.6596],
			"rotation": {"angle": -45, "axis": "x", "origin": [8, 3.5, 12]},
			"faces": {
				"north": {"uv": [0, 0, 16, 3.498], "texture": "#1"},
				"east": {"uv": [0, 0, 16, 3.498], "texture": "#1"},
				"south": {"uv": [0, 0, 16, 3.498], "texture": "#1"},
				"west": {"uv": [0, 0, 16, 3.498], "texture": "#1"},
				"up": {"uv": [0, 0, 16, 3.498], "texture": "#1"},
				"down": {"uv": [0, 0, 16, 3.498], "texture": "#1"}
			}
		},
		{
			"from": [7.6352, 4.52, 9.9],
			"to": [8.3648, 5.2496, 10.9],
			"rotation": {"angle": 22.5, "axis": "x", "origin": [8, 4.5, 11]},
			"faces": {
				"north": {"uv": [0, 0, 16, 3.498], "rotation": 180, "texture": "#1"},
				"east": {"uv": [0, 0, 16, 3.498], "rotation": 90, "texture": "#1"},
				"south": {"uv": [0, 0, 16, 3.498], "texture": "#1"},
				"west": {"uv": [0, 0, 16, 3.498], "rotation": 270, "texture": "#1"},
				"up": {"uv": [0, 0, 16, 3.498], "texture": "#1"},
				"down": {"uv": [0, 0, 16, 3.498], "rotation": 180, "texture": "#1"}
			}
		},
		{
			"from": [7.6352, 1.82, 12.795],
			"to": [8.3648, 3.82, 13.5246],
			"rotation": {"angle": -22.5, "axis": "x", "origin": [8, 1.5, 13]},
			"faces": {
				"north": {"uv": [0, 0, 16, 3.498], "texture": "#1"},
				"east": {"uv": [0, 0, 16, 3.498], "texture": "#1"},
				"south": {"uv": [0, 0, 16, 3.498], "texture": "#1"},
				"west": {"uv": [0, 0, 16, 3.498], "texture": "#1"},
				"up": {"uv": [0, 0, 16, 3.498], "texture": "#1"},
				"down": {"uv": [0, 0, 16, 3.498], "texture": "#1"}
			}
		},
		{
			"from": [7.6352, 0, 12.6352],
			"to": [8.3648, 2, 13.3648],
			"rotation": {"angle": 0, "axis": "y", "origin": [-7, 8, 8]},
			"faces": {
				"north": {"uv": [0, 0, 16, 3.498], "texture": "#1"},
				"east": {"uv": [0, 0, 16, 3.498], "texture": "#1"},
				"south": {"uv": [0, 0, 16, 3.498], "texture": "#1"},
				"west": {"uv": [0, 0, 16, 3.498], "texture": "#1"},
				"up": {"uv": [0, 0, 16, 3.498], "texture": "#1"},
				"down": {"uv": [0, 0, 16, 3.498], "texture": "#1"}
			}
		},
		{
			"from": [7, 0, 12],
			"to": [9, 1, 14],
			"rotation": {"angle": 0, "axis": "y", "origin": [-7, 8, 8]},
			"faces": {
				"north": {"uv": [0, 0, 16, 3.498], "texture": "#1"},
				"east": {"uv": [0, 0, 16, 3.498], "texture": "#1"},
				"south": {"uv": [0, 0, 16, 3.498], "texture": "#1"},
				"west": {"uv": [0, 0, 16, 3.498], "texture": "#1"},
				"up": {"uv": [0, 0, 16, 3.498], "texture": "#1"},
				"down": {"uv": [0, 0, 16, 3.498], "texture": "#1"}
			}
		},
		{
			"from": [7.6352, 2.52, 9.9],
			"to": [8.3648, 3.2496, 12.9],
			"rotation": {"angle": 22.5, "axis": "x", "origin": [8, 2.5, 11]},
			"faces": {
				"north": {"uv": [0, 0, 16, 3.498], "rotation": 180, "texture": "#1"},
				"east": {"uv": [0, 0, 16, 3.498], "rotation": 90, "texture": "#1"},
				"south": {"uv": [0, 0, 16, 3.498], "texture": "#1"},
				"west": {"uv": [0, 0, 16, 3.498], "rotation": 270, "texture": "#1"},
				"up": {"uv": [0, 0, 16, 3.498], "texture": "#1"},
				"down": {"uv": [0, 0, 16, 3.498], "rotation": 180, "texture": "#1"}
			}
		},
		{
			"from": [7.6352, 2.878, 5.7],
			"to": [8.3648, 3.6076, 10.3],
			"rotation": {"angle": 0, "axis": "y", "origin": [-7, 6, 8]},
			"faces": {
				"north": {"uv": [16, 0, 0, 3.498], "texture": "#1"},
				"east": {"uv": [0, 3.498, 16, 0], "rotation": 90, "texture": "#1"},
				"south": {"uv": [16, 0, 0, 3.498], "rotation": 180, "texture": "#1"},
				"west": {"uv": [0, 3.498, 16, 0], "rotation": 270, "texture": "#1"},
				"up": {"uv": [0, 3.498, 16, 0], "texture": "#1"},
				"down": {"uv": [0, 3.498, 16, 0], "rotation": 180, "texture": "#1"}
			}
		},
		{
			"from": [7.6352, 2.52, 3.1],
			"to": [8.3648, 3.2496, 6.1],
			"rotation": {"angle": -22.5, "axis": "x", "origin": [8, 2.5, 5]},
			"faces": {
				"north": {"uv": [16, 0, 0, 3.498], "texture": "#1"},
				"east": {"uv": [0, 3.498, 16, 0], "rotation": 90, "texture": "#1"},
				"south": {"uv": [16, 0, 0, 3.498], "rotation": 180, "texture": "#1"},
				"west": {"uv": [0, 3.498, 16, 0], "rotation": 270, "texture": "#1"},
				"up": {"uv": [0, 3.498, 16, 0], "texture": "#1"},
				"down": {"uv": [0, 3.498, 16, 0], "rotation": 180, "texture": "#1"}
			}
		},
		{
			"from": [-8, 0, 2],
			"to": [-6, 1, 4],
			"rotation": {"angle": 0, "axis": "y", "origin": [-22, 8, 8]},
			"faces": {
				"north": {"uv": [0, 0, 16, 3.498], "texture": "#1"},
				"east": {"uv": [0, 0, 16, 3.498], "texture": "#1"},
				"south": {"uv": [0, 0, 16, 3.498], "texture": "#1"},
				"west": {"uv": [0, 0, 16, 3.498], "texture": "#1"},
				"up": {"uv": [0, 0, 16, 3.498], "texture": "#1"},
				"down": {"uv": [0, 0, 16, 3.498], "texture": "#1"}
			}
		},
		{
			"from": [-7.3648, 0, 2.6352],
			"to": [-6.6352, 2, 3.3648],
			"rotation": {"angle": 0, "axis": "y", "origin": [-22, 8, 8]},
			"faces": {
				"north": {"uv": [16, 0, 0, 3.498], "texture": "#1"},
				"east": {"uv": [16, 0, 0, 3.498], "texture": "#1"},
				"south": {"uv": [16, 0, 0, 3.498], "texture": "#1"},
				"west": {"uv": [16, 0, 0, 3.498], "texture": "#1"},
				"up": {"uv": [0, 3.498, 16, 0], "texture": "#1"},
				"down": {"uv": [0, 3.498, 16, 0], "texture": "#1"}
			}
		},
		{
			"from": [-7.3648, 1.82, 2.4754],
			"to": [-6.6352, 3.82, 3.205],
			"rotation": {"angle": 22.5, "axis": "x", "origin": [-7, 1.5, 3]},
			"faces": {
				"north": {"uv": [16, 0, 0, 3.498], "texture": "#1"},
				"east": {"uv": [16, 0, 0, 3.498], "texture": "#1"},
				"south": {"uv": [16, 0, 0, 3.498], "texture": "#1"},
				"west": {"uv": [16, 0, 0, 3.498], "texture": "#1"},
				"up": {"uv": [0, 3.498, 16, 0], "texture": "#1"},
				"down": {"uv": [0, 3.498, 16, 0], "texture": "#1"}
			}
		},
		{
			"from": [-7.3648, 3.3, 3.3404],
			"to": [-6.6352, 5.3, 4.07],
			"rotation": {"angle": 45, "axis": "x", "origin": [-7, 3.5, 4]},
			"faces": {
				"north": {"uv": [16, 0, 0, 3.498], "texture": "#1"},
				"east": {"uv": [16, 0, 0, 3.498], "texture": "#1"},
				"south": {"uv": [16, 0, 0, 3.498], "texture": "#1"},
				"west": {"uv": [16, 0, 0, 3.498], "texture": "#1"},
				"up": {"uv": [0, 3.498, 16, 0], "texture": "#1"},
				"down": {"uv": [0, 3.498, 16, 0], "texture": "#1"}
			}
		},
		{
			"from": [-7.3648, 4.878, 5.7],
			"to": [-6.6352, 5.6076, 8.7],
			"rotation": {"angle": 0, "axis": "y", "origin": [-22, 8, 8]},
			"faces": {
				"north": {"uv": [16, 0, 0, 3.498], "texture": "#1"},
				"east": {"uv": [0, 3.498, 16, 0], "rotation": 90, "texture": "#1"},
				"south": {"uv": [16, 0, 0, 3.498], "rotation": 180, "texture": "#1"},
				"west": {"uv": [0, 3.498, 16, 0], "rotation": 270, "texture": "#1"},
				"up": {"uv": [0, 3.498, 16, 0], "texture": "#1"},
				"down": {"uv": [0, 3.498, 16, 0], "rotation": 180, "texture": "#1"}
			}
		},
		{
			"from": [-7.3648, 4.55, 5.93],
			"to": [-6.6352, 8.3, 6.6596],
			"rotation": {"angle": -45, "axis": "x", "origin": [-7, 5.5, 6]},
			"faces": {
				"north": {"uv": [0, 0, 16, 3.498], "texture": "#1"},
				"east": {"uv": [0, 0, 16, 3.498], "texture": "#1"},
				"south": {"uv": [0, 0, 16, 3.498], "texture": "#1"},
				"west": {"uv": [0, 0, 16, 3.498], "texture": "#1"},
				"up": {"uv": [0, 0, 16, 3.498], "texture": "#1"},
				"down": {"uv": [0, 0, 16, 3.498], "texture": "#1"}
			}
		},
		{
			"from": [-7.3648, 4.52, 5.1],
			"to": [-6.6352, 5.2496, 6.1],
			"rotation": {"angle": -22.5, "axis": "x", "origin": [-7, 4.5, 5]},
			"faces": {
				"north": {"uv": [16, 0, 0, 3.498], "texture": "#1"},
				"east": {"uv": [0, 3.498, 16, 0], "rotation": 90, "texture": "#1"},
				"south": {"uv": [16, 0, 0, 3.498], "rotation": 180, "texture": "#1"},
				"west": {"uv": [0, 3.498, 16, 0], "rotation": 270, "texture": "#1"},
				"up": {"uv": [0, 3.498, 16, 0], "texture": "#1"},
				"down": {"uv": [0, 3.498, 16, 0], "rotation": 180, "texture": "#1"}
			}
		},
		{
			"from": [-7.3648, 4.878, 7.3],
			"to": [-6.6352, 5.6076, 10.3],
			"rotation": {"angle": 0, "axis": "y", "origin": [-22, 8, 8]},
			"faces": {
				"north": {"uv": [0, 0, 16, 3.498], "rotation": 180, "texture": "#1"},
				"east": {"uv": [0, 0, 16, 3.498], "rotation": 90, "texture": "#1"},
				"south": {"uv": [0, 0, 16, 3.498], "texture": "#1"},
				"west": {"uv": [0, 0, 16, 3.498], "rotation": 270, "texture": "#1"},
				"up": {"uv": [0, 0, 16, 3.498], "texture": "#1"},
				"down": {"uv": [0, 0, 16, 3.498], "rotation": 180, "texture": "#1"}
			}
		},
		{
			"from": [-7.3648, 4.55, 9.3404],
			"to": [-6.6352, 8.3, 10.07],
			"rotation": {"angle": 45, "axis": "x", "origin": [-7, 5.5, 10]},
			"faces": {
				"north": {"uv": [16, 0, 0, 3.498], "texture": "#1"},
				"east": {"uv": [16, 0, 0, 3.498], "texture": "#1"},
				"south": {"uv": [16, 0, 0, 3.498], "texture": "#1"},
				"west": {"uv": [16, 0, 0, 3.498], "texture": "#1"},
				"up": {"uv": [0, 3.498, 16, 0], "texture": "#1"},
				"down": {"uv": [0, 3.498, 16, 0], "texture": "#1"}
			}
		},
		{
			"from": [-7.3648, 3.3, 11.93],
			"to": [-6.6352, 5.3, 12.6596],
			"rotation": {"angle": -45, "axis": "x", "origin": [-7, 3.5, 12]},
			"faces": {
				"north": {"uv": [0, 0, 16, 3.498], "texture": "#1"},
				"east": {"uv": [0, 0, 16, 3.498], "texture": "#1"},
				"south": {"uv": [0, 0, 16, 3.498], "texture": "#1"},
				"west": {"uv": [0, 0, 16, 3.498], "texture": "#1"},
				"up": {"uv": [0, 0, 16, 3.498], "texture": "#1"},
				"down": {"uv": [0, 0, 16, 3.498], "texture": "#1"}
			}
		},
		{
			"from": [-7.3648, 4.52, 9.9],
			"to": [-6.6352, 5.2496, 10.9],
			"rotation": {"angle": 22.5, "axis": "x", "origin": [-7, 4.5, 11]},
			"faces": {
				"north": {"uv": [0, 0, 16, 3.498], "rotation": 180, "texture": "#1"},
				"east": {"uv": [0, 0, 16, 3.498], "rotation": 90, "texture": "#1"},
				"south": {"uv": [0, 0, 16, 3.498], "texture": "#1"},
				"west": {"uv": [0, 0, 16, 3.498], "rotation": 270, "texture": "#1"},
				"up": {"uv": [0, 0, 16, 3.498], "texture": "#1"},
				"down": {"uv": [0, 0, 16, 3.498], "rotation": 180, "texture": "#1"}
			}
		},
		{
			"from": [-7.3648, 1.82, 12.795],
			"to": [-6.6352, 3.82, 13.5246],
			"rotation": {"angle": -22.5, "axis": "x", "origin": [-7, 1.5, 13]},
			"faces": {
				"north": {"uv": [0, 0, 16, 3.498], "texture": "#1"},
				"east": {"uv": [0, 0, 16, 3.498], "texture": "#1"},
				"south": {"uv": [0, 0, 16, 3.498], "texture": "#1"},
				"west": {"uv": [0, 0, 16, 3.498], "texture": "#1"},
				"up": {"uv": [0, 0, 16, 3.498], "texture": "#1"},
				"down": {"uv": [0, 0, 16, 3.498], "texture": "#1"}
			}
		},
		{
			"from": [-7.3648, 0, 12.6352],
			"to": [-6.6352, 2, 13.3648],
			"rotation": {"angle": 0, "axis": "y", "origin": [-22, 8, 8]},
			"faces": {
				"north": {"uv": [0, 0, 16, 3.498], "texture": "#1"},
				"east": {"uv": [0, 0, 16, 3.498], "texture": "#1"},
				"south": {"uv": [0, 0, 16, 3.498], "texture": "#1"},
				"west": {"uv": [0, 0, 16, 3.498], "texture": "#1"},
				"up": {"uv": [0, 0, 16, 3.498], "texture": "#1"},
				"down": {"uv": [0, 0, 16, 3.498], "texture": "#1"}
			}
		},
		{
			"from": [-8, 0, 12],
			"to": [-6, 1, 14],
			"rotation": {"angle": 0, "axis": "y", "origin": [-22, 8, 8]},
			"faces": {
				"north": {"uv": [0, 0, 16, 3.498], "texture": "#1"},
				"east": {"uv": [0, 0, 16, 3.498], "texture": "#1"},
				"south": {"uv": [0, 0, 16, 3.498], "texture": "#1"},
				"west": {"uv": [0, 0, 16, 3.498], "texture": "#1"},
				"up": {"uv": [0, 0, 16, 3.498], "texture": "#1"},
				"down": {"uv": [0, 0, 16, 3.498], "texture": "#1"}
			}
		},
		{
			"from": [-7.3648, 2.52, 9.9],
			"to": [-6.6352, 3.2496, 12.9],
			"rotation": {"angle": 22.5, "axis": "x", "origin": [-7, 2.5, 11]},
			"faces": {
				"north": {"uv": [0, 0, 16, 3.498], "rotation": 180, "texture": "#1"},
				"east": {"uv": [0, 0, 16, 3.498], "rotation": 90, "texture": "#1"},
				"south": {"uv": [0, 0, 16, 3.498], "texture": "#1"},
				"west": {"uv": [0, 0, 16, 3.498], "rotation": 270, "texture": "#1"},
				"up": {"uv": [0, 0, 16, 3.498], "texture": "#1"},
				"down": {"uv": [0, 0, 16, 3.498], "rotation": 180, "texture": "#1"}
			}
		},
		{
			"from": [-7.3648, 2.878, 5.7],
			"to": [-6.6352, 3.6076, 10.3],
			"rotation": {"angle": 0, "axis": "y", "origin": [-22, 6, 8]},
			"faces": {
				"north": {"uv": [16, 0, 0, 3.498], "texture": "#1"},
				"east": {"uv": [0, 3.498, 16, 0], "rotation": 90, "texture": "#1"},
				"south": {"uv": [16, 0, 0, 3.498], "rotation": 180, "texture": "#1"},
				"west": {"uv": [0, 3.498, 16, 0], "rotation": 270, "texture": "#1"},
				"up": {"uv": [0, 3.498, 16, 0], "texture": "#1"},
				"down": {"uv": [0, 3.498, 16, 0], "rotation": 180, "texture": "#1"}
			}
		},
		{
			"from": [-7.3648, 2.52, 3.1],
			"to": [-6.6352, 3.2496, 6.1],
			"rotation": {"angle": -22.5, "axis": "x", "origin": [-7, 2.5, 5]},
			"faces": {
				"north": {"uv": [16, 0, 0, 3.498], "texture": "#1"},
				"east": {"uv": [0, 3.498, 16, 0], "rotation": 90, "texture": "#1"},
				"south": {"uv": [16, 0, 0, 3.498], "rotation": 180, "texture": "#1"},
				"west": {"uv": [0, 3.498, 16, 0], "rotation": 270, "texture": "#1"},
				"up": {"uv": [0, 3.498, 16, 0], "texture": "#1"},
				"down": {"uv": [0, 3.498, 16, 0], "rotation": 180, "texture": "#1"}
			}
		},
		{
			"from": [7.5, 12, 5.3],
			"to": [8.5, 13.8, 6.3],
			"rotation": {"angle": 45, "axis": "x", "origin": [-7, 3, 3]},
			"faces": {
				"north": {"uv": [0, 0, 16, 3.498], "texture": "#1"},
				"east": {"uv": [0, 0, 16, 3.498], "texture": "#1"},
				"south": {"uv": [0, 0, 16, 3.498], "texture": "#1"},
				"west": {"uv": [0, 0, 16, 3.498], "texture": "#1"},
				"up": {"uv": [0, 0, 16, 3.498], "texture": "#1"},
				"down": {"uv": [0, 0, 16, 3.498], "texture": "#1"}
			}
		},
		{
			"from": [22.5, 4, -0.7],
			"to": [23.5, 6.5, 0.3],
			"rotation": {"angle": 45, "axis": "x", "origin": [-7, 3, 3]},
			"faces": {
				"north": {"uv": [0, 0, 16, 3.498], "texture": "#1"},
				"east": {"uv": [0, 0, 16, 3.498], "texture": "#1"},
				"south": {"uv": [0, 0, 16, 3.498], "texture": "#1"},
				"west": {"uv": [0, 0, 16, 3.498], "texture": "#1"},
				"up": {"uv": [0, 0, 16, 3.498], "texture": "#1"},
				"down": {"uv": [0, 0, 16, 3.498], "texture": "#1"}
			}
		},
		{
			"from": [7.5, 4, -0.7],
			"to": [8.5, 6.5, 0.3],
			"rotation": {"angle": 45, "axis": "x", "origin": [-7, 3, 3]},
			"faces": {
				"north": {"uv": [0, 0, 16, 3.498], "texture": "#1"},
				"east": {"uv": [0, 0, 16, 3.498], "texture": "#1"},
				"south": {"uv": [0, 0, 16, 3.498], "texture": "#1"},
				"west": {"uv": [0, 0, 16, 3.498], "texture": "#1"},
				"up": {"uv": [0, 0, 16, 3.498], "texture": "#1"},
				"down": {"uv": [0, 0, 16, 3.498], "texture": "#1"}
			}
		},
		{
			"from": [22.5, 7, 3],
			"to": [23.5, 8, 11.5],
			"faces": {
				"north": {"uv": [0, 0, 16, 3.498], "texture": "#1"},
				"east": {"uv": [0, 0, 16, 3.498], "texture": "#1"},
				"south": {"uv": [0, 0, 16, 3.498], "texture": "#1"},
				"west": {"uv": [0, 0, 16, 3.498], "texture": "#1"},
				"up": {"uv": [0, 0, 16, 3.498], "texture": "#1"},
				"down": {"uv": [0, 0, 16, 3.498], "texture": "#1"}
			}
		},
		{
			"from": [22.5, 12, 5.3],
			"to": [23.5, 13.5, 6.3],
			"rotation": {"angle": 45, "axis": "x", "origin": [-7, 3, 3]},
			"faces": {
				"north": {"uv": [0, 0, 16, 3.498], "texture": "#1"},
				"east": {"uv": [0, 0, 16, 3.498], "texture": "#1"},
				"south": {"uv": [0, 0, 16, 3.498], "texture": "#1"},
				"west": {"uv": [0, 0, 16, 3.498], "texture": "#1"},
				"up": {"uv": [0, 0, 16, 3.498], "texture": "#1"},
				"down": {"uv": [0, 0, 16, 3.498], "texture": "#1"}
			}
		},
		{
			"from": [22.5, 10, 11],
			"to": [23.5, 22, 12],
			"rotation": {"angle": 22.5, "axis": "x", "origin": [25, 7.5, 7.5]},
			"faces": {
				"north": {"uv": [0, 0, 16, 3.498], "rotation": 180, "texture": "#1"},
				"east": {"uv": [0, 0, 16, 3.498], "texture": "#1"},
				"south": {"uv": [0, 0, 16, 3.498], "texture": "#1"},
				"west": {"uv": [0, 0, 16, 3.498], "texture": "#1"},
				"up": {"uv": [0, 0, 16, 3.498], "texture": "#1"},
				"down": {"uv": [0, 0, 16, 3.498], "texture": "#1"}
			}
		},
		{
			"from": [-8, 19.5, 16.3],
			"to": [24, 20, 17.3],
			"rotation": {"angle": 22.5, "axis": "x", "origin": [9, 19.5, 16.5]},
			"faces": {
				"north": {"uv": [0, 0, 16, 3.498], "rotation": 180, "texture": "#1"},
				"east": {"uv": [0, 0, 16, 3.498], "texture": "#1"},
				"south": {"uv": [0, 0, 16, 3.498], "texture": "#1"},
				"west": {"uv": [0, 0, 16, 3.498], "texture": "#1"},
				"up": {"uv": [0, 0, 16, 3.498], "texture": "#1"},
				"down": {"uv": [0, 0, 16, 3.498], "texture": "#1"}
			}
		},
		{
			"from": [7.5, 10, 11],
			"to": [8.5, 22, 12],
			"rotation": {"angle": 22.5, "axis": "x", "origin": [25, 7.5, 7.5]},
			"faces": {
				"north": {"uv": [0, 0, 16, 3.498], "rotation": 180, "texture": "#1"},
				"east": {"uv": [0, 0, 16, 3.498], "texture": "#1"},
				"south": {"uv": [0, 0, 16, 3.498], "texture": "#1"},
				"west": {"uv": [0, 0, 16, 3.498], "texture": "#1"},
				"up": {"uv": [0, 0, 16, 3.498], "texture": "#1"},
				"down": {"uv": [0, 0, 16, 3.498], "texture": "#1"}
			}
		},
		{
			"from": [-7.5, 10, 11],
			"to": [-6.5, 22, 12],
			"rotation": {"angle": 22.5, "axis": "x", "origin": [25, 7.5, 7.5]},
			"faces": {
				"north": {"uv": [0, 0, 16, 3.498], "rotation": 180, "texture": "#1"},
				"east": {"uv": [0, 0, 16, 3.498], "texture": "#1"},
				"south": {"uv": [0, 0, 16, 3.498], "texture": "#1"},
				"west": {"uv": [0, 0, 16, 3.498], "texture": "#1"},
				"up": {"uv": [0, 0, 16, 3.498], "texture": "#1"},
				"down": {"uv": [0, 0, 16, 3.498], "texture": "#1"}
			}
		},
		{
			"from": [-7, 6, 1],
			"to": [23, 6.5, 2],
			"rotation": {"angle": -22.5, "axis": "x", "origin": [9, 6.5, 2]},
			"faces": {
				"north": {"uv": [0, 0, 16, 3.498], "rotation": 180, "texture": "#1"},
				"east": {"uv": [0, 0, 16, 3.498], "texture": "#1"},
				"south": {"uv": [0, 0, 16, 3.498], "texture": "#1"},
				"west": {"uv": [0, 0, 16, 3.498], "texture": "#1"},
				"up": {"uv": [0, 0, 16, 3.498], "texture": "#1"},
				"down": {"uv": [0, 0, 16, 3.498], "texture": "#1"}
			}
		},
		{
			"from": [7.5, 7, 3],
			"to": [8.5, 8, 11.4],
			"faces": {
				"north": {"uv": [0, 0, 16, 3.498], "texture": "#1"},
				"east": {"uv": [0, 0, 16, 3.498], "texture": "#1"},
				"south": {"uv": [0, 0, 16, 3.498], "texture": "#1"},
				"west": {"uv": [0, 0, 16, 3.498], "texture": "#1"},
				"up": {"uv": [0, 0, 16, 3.498], "texture": "#1"},
				"down": {"uv": [0, 0, 16, 3.498], "texture": "#1"}
			}
		},
		{
			"from": [-7.5, 12, 5.3],
			"to": [-6.5, 13.5, 6.3],
			"rotation": {"angle": 45, "axis": "x", "origin": [-7, 3, 3]},
			"faces": {
				"north": {"uv": [0, 0, 16, 3.498], "texture": "#1"},
				"east": {"uv": [0, 0, 16, 3.498], "texture": "#1"},
				"south": {"uv": [0, 0, 16, 3.498], "texture": "#1"},
				"west": {"uv": [0, 0, 16, 3.498], "texture": "#1"},
				"up": {"uv": [0, 0, 16, 3.498], "texture": "#1"},
				"down": {"uv": [0, 0, 16, 3.498], "texture": "#1"}
			}
		},
		{
			"from": [-7.5, 4, -0.7],
			"to": [-6.5, 6.5, 0.3],
			"rotation": {"angle": 45, "axis": "x", "origin": [-7, 3, 3]},
			"faces": {
				"north": {"uv": [0, 0, 16, 3.498], "texture": "#1"},
				"east": {"uv": [0, 0, 16, 3.498], "texture": "#1"},
				"south": {"uv": [0, 0, 16, 3.498], "texture": "#1"},
				"west": {"uv": [0, 0, 16, 3.498], "texture": "#1"},
				"up": {"uv": [0, 0, 16, 3.498], "texture": "#1"},
				"down": {"uv": [0, 0, 16, 3.498], "texture": "#1"}
			}
		},
		{
			"from": [-7.5, 7, 3],
			"to": [-6.5, 8, 11.5],
			"faces": {
				"north": {"uv": [0, 0, 16, 3.498], "texture": "#1"},
				"east": {"uv": [0, 0, 16, 3.498], "texture": "#1"},
				"south": {"uv": [0, 0, 16, 3.498], "texture": "#1"},
				"west": {"uv": [0, 0, 16, 3.498], "texture": "#1"},
				"up": {"uv": [0, 0, 16, 3.498], "texture": "#1"},
				"down": {"uv": [0, 0, 16, 3.498], "texture": "#1"}
			}
		},
		{
			"from": [-7.5, 8, 12],
			"to": [23.5, 9, 13],
			"faces": {
				"north": {"uv": [0, 0, 16, 3.498], "texture": "#1"},
				"east": {"uv": [0, 0, 16, 3.498], "texture": "#1"},
				"south": {"uv": [0, 0, 16, 3.498], "texture": "#1"},
				"west": {"uv": [0, 0, 16, 3.498], "texture": "#1"},
				"up": {"uv": [0, 0, 16, 3.498], "texture": "#1"},
				"down": {"uv": [0, 0, 16, 3.498], "texture": "#1"}
			}
		},
		{
			"from": [-8, 16, 7.3],
			"to": [24, 18, 7.8],
			"rotation": {"angle": 22.5, "axis": "x", "origin": [0.5, 0.5, 0.5]},
			"faces": {
				"north": {"uv": [0, 0, 16, 8.249], "texture": "#0"},
				"east": {"uv": [0, 0, 0.5, 2], "texture": "#0"},
				"south": {"uv": [0, 0, 16, 8.249], "texture": "#0"},
				"west": {"uv": [0, 5.375, 1.125, 7.125], "texture": "#0"},
				"up": {"uv": [0, 0, 16, 8.249], "texture": "#0"},
				"down": {"uv": [0, 0, 16, 8.249], "texture": "#0"}
			}
		},
		{
			"from": [-8, 19, 7.3],
			"to": [24, 21, 7.8],
			"rotation": {"angle": 22.5, "axis": "x", "origin": [0.5, 0.5, 0.5]},
			"faces": {
				"north": {"uv": [0, 0, 16, 8.249], "texture": "#0"},
				"east": {"uv": [0, 0, 0.5, 2], "texture": "#0"},
				"south": {"uv": [0, 0, 16, 8.249], "texture": "#0"},
				"west": {"uv": [0, 5.375, 1.125, 7.125], "texture": "#0"},
				"up": {"uv": [0, 0, 16, 8.249], "texture": "#0"},
				"down": {"uv": [0, 0, 16, 8.249], "texture": "#0"}
			}
		},
		{
			"from": [-8, 22, 7.3],
			"to": [24, 24, 7.8],
			"rotation": {"angle": 22.5, "axis": "x", "origin": [0.5, 0.5, 0.5]},
			"faces": {
				"north": {"uv": [0, 0, 16, 8.249], "texture": "#0"},
				"east": {"uv": [0, 0, 0.5, 2], "texture": "#0"},
				"south": {"uv": [0, 0, 16, 8.249], "texture": "#0"},
				"west": {"uv": [0, 5.375, 1.125, 7.125], "texture": "#0"},
				"up": {"uv": [0, 0, 16, 8.249], "texture": "#0"},
				"down": {"uv": [0, 0, 16, 8.249], "texture": "#0"}
			}
		},
		{
			"from": [-8, 13, 7.3],
			"to": [24, 15, 7.8],
			"rotation": {"angle": 22.5, "axis": "x", "origin": [0.5, 0.5, 0.5]},
			"faces": {
				"north": {"uv": [0, 0, 16, 8.249], "texture": "#0"},
				"east": {"uv": [0, 0, 0.5, 2], "texture": "#0"},
				"south": {"uv": [0, 0, 16, 8.249], "texture": "#0"},
				"west": {"uv": [0, 5.375, 1.125, 7.125], "texture": "#0"},
				"up": {"uv": [0, 0, 16, 8.249], "texture": "#0"},
				"down": {"uv": [0, 0, 16, 8.249], "texture": "#0"}
			}
		},
		{
			"from": [-8, 8.2, 9],
			"to": [24, 8.7, 11],
			"faces": {
				"north": {"uv": [0, 0, 16, 8.249], "texture": "#0"},
				"east": {"uv": [0, 0, 0.5, 2], "rotation": 270, "texture": "#0"},
				"south": {"uv": [0, 0, 16, 8.249], "texture": "#0"},
				"west": {"uv": [0, 5.375, 1.125, 7.125], "rotation": 90, "texture": "#0"},
				"up": {"uv": [0, 0, 16, 8.249], "texture": "#0"},
				"down": {"uv": [0, 0, 16, 8.249], "texture": "#0"}
			}
		},
		{
			"from": [-8, 8.2, 6],
			"to": [24, 8.7, 8],
			"faces": {
				"north": {"uv": [0, 0, 16, 8.249], "texture": "#0"},
				"east": {"uv": [0, 0, 0.5, 2], "rotation": 270, "texture": "#0"},
				"south": {"uv": [0, 0, 16, 8.249], "texture": "#0"},
				"west": {"uv": [0, 5.375, 1.125, 7.125], "rotation": 90, "texture": "#0"},
				"up": {"uv": [0, 0, 16, 8.249], "texture": "#0"},
				"down": {"uv": [0, 0, 16, 8.249], "texture": "#0"}
			}
		},
		{
			"from": [-8, 8.2, 3],
			"to": [24, 8.7, 5],
			"faces": {
				"north": {"uv": [0, 0, 16, 8.249], "texture": "#0"},
				"east": {"uv": [0, 0, 0.5, 2], "rotation": 270, "texture": "#0"},
				"south": {"uv": [0, 0, 16, 8.249], "texture": "#0"},
				"west": {"uv": [0, 5.375, 1.125, 7.125], "rotation": 90, "texture": "#0"},
				"up": {"uv": [0, 0, 16, 8.249], "texture": "#0"},
				"down": {"uv": [0, 0, 16, 8.249], "texture": "#0"}
			}
		},
		{
			"from": [-8, 4.2, 5],
			"to": [24, 4.7, 7],
			"rotation": {"angle": -45, "axis": "x", "origin": [0.5, 0.5, 0.5]},
			"faces": {
				"north": {"uv": [0, 0, 16, 8.249], "texture": "#0"},
				"east": {"uv": [0, 0, 0.5, 2], "rotation": 270, "texture": "#0"},
				"south": {"uv": [0, 0, 16, 8.249], "texture": "#0"},
				"west": {"uv": [0, 5.375, 1.125, 7.125], "rotation": 90, "texture": "#0"},
				"up": {"uv": [0, 0, 16, 8.249], "texture": "#0"},
				"down": {"uv": [0, 0, 16, 8.249], "texture": "#0"}
			}
		},
		{
			"from": [22.86, 8.5, 9.1264],
			"to": [23.1416, 8.7816, 9.408],
			"faces": {
				"north": {"uv": [0, 0, 1, 1], "texture": "#2"},
				"east": {"uv": [0, 0, 1, 1], "texture": "#2"},
				"south": {"uv": [0, 0, 1, 1], "texture": "#2"},
				"west": {"uv": [0, 0, 1, 1], "texture": "#2"},
				"up": {"uv": [0, 0, 1, 1], "texture": "#2"},
				"down": {"uv": [0, 0, 1, 1], "texture": "#2"}
			}
		},
		{
			"from": [22.86, 10.3, 12.7],
			"to": [23.1416, 10.5816, 12.9816],
			"rotation": {"angle": 22.5, "axis": "x", "origin": [24.5968, 12.8848, 10.3792]},
			"faces": {
				"north": {"uv": [0, 0, 1, 1], "rotation": 180, "texture": "#2"},
				"east": {"uv": [0, 0, 1, 1], "rotation": 90, "texture": "#2"},
				"south": {"uv": [0, 0, 1, 1], "texture": "#2"},
				"west": {"uv": [0, 0, 1, 1], "rotation": 270, "texture": "#2"},
				"up": {"uv": [0, 0, 1, 1], "texture": "#2"},
				"down": {"uv": [0, 0, 1, 1], "rotation": 180, "texture": "#2"}
			}
		},
		{
			"from": [-7.1416, 10.3, 12.7],
			"to": [-6.86, 10.5816, 12.9816],
			"rotation": {"angle": 22.5, "axis": "x", "origin": [-8.5968, 12.8848, 10.3792]},
			"faces": {
				"north": {"uv": [1, 0, 0, 1], "rotation": 180, "texture": "#2"},
				"east": {"uv": [0, 1, 1, 0], "rotation": 270, "texture": "#2"},
				"south": {"uv": [1, 0, 0, 1], "texture": "#2"},
				"west": {"uv": [0, 1, 1, 0], "rotation": 90, "texture": "#2"},
				"up": {"uv": [1, 0, 0, 1], "texture": "#2"},
				"down": {"uv": [1, 0, 0, 1], "rotation": 180, "texture": "#2"}
			}
		},
		{
			"from": [22.86, 13.11, 13.92],
			"to": [23.1416, 13.3916, 14.2016],
			"rotation": {"angle": 22.5, "axis": "x", "origin": [24.5968, 15.8848, 11.3792]},
			"faces": {
				"north": {"uv": [0, 0, 1, 1], "rotation": 180, "texture": "#2"},
				"east": {"uv": [0, 0, 1, 1], "rotation": 90, "texture": "#2"},
				"south": {"uv": [0, 0, 1, 1], "texture": "#2"},
				"west": {"uv": [0, 0, 1, 1], "rotation": 270, "texture": "#2"},
				"up": {"uv": [0, 0, 1, 1], "texture": "#2"},
				"down": {"uv": [0, 0, 1, 1], "rotation": 180, "texture": "#2"}
			}
		},
		{
			"from": [-7.1416, 13.11, 13.92],
			"to": [-6.86, 13.3916, 14.2016],
			"rotation": {"angle": 22.5, "axis": "x", "origin": [-8.5968, 15.8848, 11.3792]},
			"faces": {
				"north": {"uv": [1, 0, 0, 1], "rotation": 180, "texture": "#2"},
				"east": {"uv": [0, 1, 1, 0], "rotation": 270, "texture": "#2"},
				"south": {"uv": [1, 0, 0, 1], "texture": "#2"},
				"west": {"uv": [0, 1, 1, 0], "rotation": 90, "texture": "#2"},
				"up": {"uv": [1, 0, 0, 1], "texture": "#2"},
				"down": {"uv": [1, 0, 0, 1], "rotation": 180, "texture": "#2"}
			}
		},
		{
			"from": [22.86, 15.96, 15.14],
			"to": [23.1416, 16.2416, 15.4216],
			"rotation": {"angle": 22.5, "axis": "x", "origin": [24.5968, 18.8848, 12.3792]},
			"faces": {
				"north": {"uv": [0, 0, 1, 1], "rotation": 180, "texture": "#2"},
				"east": {"uv": [0, 0, 1, 1], "rotation": 90, "texture": "#2"},
				"south": {"uv": [0, 0, 1, 1], "texture": "#2"},
				"west": {"uv": [0, 0, 1, 1], "rotation": 270, "texture": "#2"},
				"up": {"uv": [0, 0, 1, 1], "texture": "#2"},
				"down": {"uv": [0, 0, 1, 1], "rotation": 180, "texture": "#2"}
			}
		},
		{
			"from": [-7.1416, 15.96, 15.14],
			"to": [-6.86, 16.2416, 15.4216],
			"rotation": {"angle": 22.5, "axis": "x", "origin": [-8.5968, 18.8848, 12.3792]},
			"faces": {
				"north": {"uv": [1, 0, 0, 1], "rotation": 180, "texture": "#2"},
				"east": {"uv": [0, 1, 1, 0], "rotation": 270, "texture": "#2"},
				"south": {"uv": [1, 0, 0, 1], "texture": "#2"},
				"west": {"uv": [0, 1, 1, 0], "rotation": 90, "texture": "#2"},
				"up": {"uv": [1, 0, 0, 1], "texture": "#2"},
				"down": {"uv": [1, 0, 0, 1], "rotation": 180, "texture": "#2"}
			}
		},
		{
			"from": [22.86, 18.8, 16.37],
			"to": [23.1416, 19.0816, 16.6516],
			"rotation": {"angle": 22.5, "axis": "x", "origin": [24.5968, 21.8848, 13.3792]},
			"faces": {
				"north": {"uv": [0, 0, 1, 1], "rotation": 180, "texture": "#2"},
				"east": {"uv": [0, 0, 1, 1], "rotation": 90, "texture": "#2"},
				"south": {"uv": [0, 0, 1, 1], "texture": "#2"},
				"west": {"uv": [0, 0, 1, 1], "rotation": 270, "texture": "#2"},
				"up": {"uv": [0, 0, 1, 1], "texture": "#2"},
				"down": {"uv": [0, 0, 1, 1], "rotation": 180, "texture": "#2"}
			}
		},
		{
			"from": [-7.1416, 18.8, 16.37],
			"to": [-6.86, 19.0816, 16.6516],
			"rotation": {"angle": 22.5, "axis": "x", "origin": [-8.5968, 21.8848, 13.3792]},
			"faces": {
				"north": {"uv": [1, 0, 0, 1], "rotation": 180, "texture": "#2"},
				"east": {"uv": [0, 1, 1, 0], "rotation": 270, "texture": "#2"},
				"south": {"uv": [1, 0, 0, 1], "texture": "#2"},
				"west": {"uv": [0, 1, 1, 0], "rotation": 90, "texture": "#2"},
				"up": {"uv": [1, 0, 0, 1], "texture": "#2"},
				"down": {"uv": [1, 0, 0, 1], "rotation": 180, "texture": "#2"}
			}
		},
		{
			"from": [-7.1416, 8.5, 9.1264],
			"to": [-6.86, 8.7816, 9.408],
			"faces": {
				"north": {"uv": [1, 0, 0, 1], "texture": "#2"},
				"east": {"uv": [1, 0, 0, 1], "texture": "#2"},
				"south": {"uv": [1, 0, 0, 1], "texture": "#2"},
				"west": {"uv": [1, 0, 0, 1], "texture": "#2"},
				"up": {"uv": [1, 0, 0, 1], "texture": "#2"},
				"down": {"uv": [1, 0, 0, 1], "texture": "#2"}
			}
		},
		{
			"from": [22.86, 8.5, 6.1264],
			"to": [23.1416, 8.7816, 6.408],
			"faces": {
				"north": {"uv": [0, 0, 1, 1], "texture": "#2"},
				"east": {"uv": [0, 0, 1, 1], "texture": "#2"},
				"south": {"uv": [0, 0, 1, 1], "texture": "#2"},
				"west": {"uv": [0, 0, 1, 1], "texture": "#2"},
				"up": {"uv": [0, 0, 1, 1], "texture": "#2"},
				"down": {"uv": [0, 0, 1, 1], "texture": "#2"}
			}
		},
		{
			"from": [-7.1416, 8.5, 6.1264],
			"to": [-6.86, 8.7816, 6.408],
			"faces": {
				"north": {"uv": [1, 0, 0, 1], "texture": "#2"},
				"east": {"uv": [1, 0, 0, 1], "texture": "#2"},
				"south": {"uv": [1, 0, 0, 1], "texture": "#2"},
				"west": {"uv": [1, 0, 0, 1], "texture": "#2"},
				"up": {"uv": [1, 0, 0, 1], "texture": "#2"},
				"down": {"uv": [1, 0, 0, 1], "texture": "#2"}
			}
		},
		{
			"from": [22.86, 8.5, 3.1264],
			"to": [23.1416, 8.7816, 3.408],
			"faces": {
				"north": {"uv": [0, 0, 1, 1], "texture": "#2"},
				"east": {"uv": [0, 0, 1, 1], "texture": "#2"},
				"south": {"uv": [0, 0, 1, 1], "texture": "#2"},
				"west": {"uv": [0, 0, 1, 1], "texture": "#2"},
				"up": {"uv": [0, 0, 1, 1], "texture": "#2"},
				"down": {"uv": [0, 0, 1, 1], "texture": "#2"}
			}
		},
		{
			"from": [-7.1416, 8.5, 3.1264],
			"to": [-6.86, 8.7816, 3.408],
			"faces": {
				"north": {"uv": [1, 0, 0, 1], "texture": "#2"},
				"east": {"uv": [1, 0, 0, 1], "texture": "#2"},
				"south": {"uv": [1, 0, 0, 1], "texture": "#2"},
				"west": {"uv": [1, 0, 0, 1], "texture": "#2"},
				"up": {"uv": [1, 0, 0, 1], "texture": "#2"},
				"down": {"uv": [1, 0, 0, 1], "texture": "#2"}
			}
		},
		{
			"from": [22.86, 8.2, -1.95],
			"to": [23.1416, 8.4816, -1.6684],
			"rotation": {"angle": -45, "axis": "x", "origin": [24.5968, 10.8848, 1.3792]},
			"faces": {
				"north": {"uv": [0, 0, 1, 1], "texture": "#2"},
				"east": {"uv": [0, 0, 1, 1], "texture": "#2"},
				"south": {"uv": [0, 0, 1, 1], "texture": "#2"},
				"west": {"uv": [0, 0, 1, 1], "texture": "#2"},
				"up": {"uv": [0, 0, 1, 1], "texture": "#2"},
				"down": {"uv": [0, 0, 1, 1], "texture": "#2"}
			}
		},
		{
			"from": [-7.1416, 8.2, -1.95],
			"to": [-6.86, 8.4816, -1.6684],
			"rotation": {"angle": -45, "axis": "x", "origin": [-8.5968, 10.8848, 1.3792]},
			"faces": {
				"north": {"uv": [1, 0, 0, 1], "texture": "#2"},
				"east": {"uv": [1, 0, 0, 1], "texture": "#2"},
				"south": {"uv": [1, 0, 0, 1], "texture": "#2"},
				"west": {"uv": [1, 0, 0, 1], "texture": "#2"},
				"up": {"uv": [1, 0, 0, 1], "texture": "#2"},
				"down": {"uv": [1, 0, 0, 1], "texture": "#2"}
			}
		},
		{
			"from": [22.86, 8.5, 10.6],
			"to": [23.1416, 8.7816, 10.8816],
			"faces": {
				"north": {"uv": [0, 0, 1, 1], "texture": "#2"},
				"east": {"uv": [0, 0, 1, 1], "texture": "#2"},
				"south": {"uv": [0, 0, 1, 1], "texture": "#2"},
				"west": {"uv": [0, 0, 1, 1], "texture": "#2"},
				"up": {"uv": [0, 0, 1, 1], "texture": "#2"},
				"down": {"uv": [0, 0, 1, 1], "texture": "#2"}
			}
		},
		{
			"from": [22.86, 11.8, 12.7],
			"to": [23.1416, 12.0816, 12.9816],
			"rotation": {"angle": 22.5, "axis": "x", "origin": [24.5968, 12.8848, 10.3792]},
			"faces": {
				"north": {"uv": [0, 0, 1, 1], "rotation": 180, "texture": "#2"},
				"east": {"uv": [0, 0, 1, 1], "rotation": 90, "texture": "#2"},
				"south": {"uv": [0, 0, 1, 1], "texture": "#2"},
				"west": {"uv": [0, 0, 1, 1], "rotation": 270, "texture": "#2"},
				"up": {"uv": [0, 0, 1, 1], "texture": "#2"},
				"down": {"uv": [0, 0, 1, 1], "rotation": 180, "texture": "#2"}
			}
		},
		{
			"from": [-7.1416, 11.8, 12.7],
			"to": [-6.86, 12.0816, 12.9816],
			"rotation": {"angle": 22.5, "axis": "x", "origin": [-8.5968, 12.8848, 10.3792]},
			"faces": {
				"north": {"uv": [1, 0, 0, 1], "rotation": 180, "texture": "#2"},
				"east": {"uv": [0, 1, 1, 0], "rotation": 270, "texture": "#2"},
				"south": {"uv": [1, 0, 0, 1], "texture": "#2"},
				"west": {"uv": [0, 1, 1, 0], "rotation": 90, "texture": "#2"},
				"up": {"uv": [1, 0, 0, 1], "texture": "#2"},
				"down": {"uv": [1, 0, 0, 1], "rotation": 180, "texture": "#2"}
			}
		},
		{
			"from": [22.86, 14.64, 13.93],
			"to": [23.1416, 14.9216, 14.2116],
			"rotation": {"angle": 22.5, "axis": "x", "origin": [24.5968, 15.8848, 11.3792]},
			"faces": {
				"north": {"uv": [0, 0, 1, 1], "rotation": 180, "texture": "#2"},
				"east": {"uv": [0, 0, 1, 1], "rotation": 90, "texture": "#2"},
				"south": {"uv": [0, 0, 1, 1], "texture": "#2"},
				"west": {"uv": [0, 0, 1, 1], "rotation": 270, "texture": "#2"},
				"up": {"uv": [0, 0, 1, 1], "texture": "#2"},
				"down": {"uv": [0, 0, 1, 1], "rotation": 180, "texture": "#2"}
			}
		},
		{
			"from": [-7.1416, 14.64, 13.93],
			"to": [-6.86, 14.9216, 14.2116],
			"rotation": {"angle": 22.5, "axis": "x", "origin": [-8.5968, 15.8848, 11.3792]},
			"faces": {
				"north": {"uv": [1, 0, 0, 1], "rotation": 180, "texture": "#2"},
				"east": {"uv": [0, 1, 1, 0], "rotation": 270, "texture": "#2"},
				"south": {"uv": [1, 0, 0, 1], "texture": "#2"},
				"west": {"uv": [0, 1, 1, 0], "rotation": 90, "texture": "#2"},
				"up": {"uv": [1, 0, 0, 1], "texture": "#2"},
				"down": {"uv": [1, 0, 0, 1], "rotation": 180, "texture": "#2"}
			}
		},
		{
			"from": [22.86, 17.474, 15.14],
			"to": [23.1416, 17.7556, 15.4216],
			"rotation": {"angle": 22.5, "axis": "x", "origin": [24.5968, 18.8848, 12.3792]},
			"faces": {
				"north": {"uv": [0, 0, 1, 1], "rotation": 180, "texture": "#2"},
				"east": {"uv": [0, 0, 1, 1], "rotation": 90, "texture": "#2"},
				"south": {"uv": [0, 0, 1, 1], "texture": "#2"},
				"west": {"uv": [0, 0, 1, 1], "rotation": 270, "texture": "#2"},
				"up": {"uv": [0, 0, 1, 1], "texture": "#2"},
				"down": {"uv": [0, 0, 1, 1], "rotation": 180, "texture": "#2"}
			}
		},
		{
			"from": [-7.1416, 17.474, 15.14],
			"to": [-6.86, 17.7556, 15.4216],
			"rotation": {"angle": 22.5, "axis": "x", "origin": [-8.5968, 18.8848, 12.3792]},
			"faces": {
				"north": {"uv": [1, 0, 0, 1], "rotation": 180, "texture": "#2"},
				"east": {"uv": [0, 1, 1, 0], "rotation": 270, "texture": "#2"},
				"south": {"uv": [1, 0, 0, 1], "texture": "#2"},
				"west": {"uv": [0, 1, 1, 0], "rotation": 90, "texture": "#2"},
				"up": {"uv": [1, 0, 0, 1], "texture": "#2"},
				"down": {"uv": [1, 0, 0, 1], "rotation": 180, "texture": "#2"}
			}
		},
		{
			"from": [22.86, 20.32, 16.37],
			"to": [23.1416, 20.6016, 16.6516],
			"rotation": {"angle": 22.5, "axis": "x", "origin": [24.5968, 21.8848, 13.3792]},
			"faces": {
				"north": {"uv": [0, 0, 1, 1], "rotation": 180, "texture": "#2"},
				"east": {"uv": [0, 0, 1, 1], "rotation": 90, "texture": "#2"},
				"south": {"uv": [0, 0, 1, 1], "texture": "#2"},
				"west": {"uv": [0, 0, 1, 1], "rotation": 270, "texture": "#2"},
				"up": {"uv": [0, 0, 1, 1], "texture": "#2"},
				"down": {"uv": [0, 0, 1, 1], "rotation": 180, "texture": "#2"}
			}
		},
		{
			"from": [-7.1416, 20.32, 16.37],
			"to": [-6.86, 20.6016, 16.6516],
			"rotation": {"angle": 22.5, "axis": "x", "origin": [-8.5968, 21.8848, 13.3792]},
			"faces": {
				"north": {"uv": [1, 0, 0, 1], "rotation": 180, "texture": "#2"},
				"east": {"uv": [0, 1, 1, 0], "rotation": 270, "texture": "#2"},
				"south": {"uv": [1, 0, 0, 1], "texture": "#2"},
				"west": {"uv": [0, 1, 1, 0], "rotation": 90, "texture": "#2"},
				"up": {"uv": [1, 0, 0, 1], "texture": "#2"},
				"down": {"uv": [1, 0, 0, 1], "rotation": 180, "texture": "#2"}
			}
		},
		{
			"from": [-7.1416, 8.5, 10.6],
			"to": [-6.86, 8.7816, 10.8816],
			"faces": {
				"north": {"uv": [1, 0, 0, 1], "texture": "#2"},
				"east": {"uv": [1, 0, 0, 1], "texture": "#2"},
				"south": {"uv": [1, 0, 0, 1], "texture": "#2"},
				"west": {"uv": [1, 0, 0, 1], "texture": "#2"},
				"up": {"uv": [1, 0, 0, 1], "texture": "#2"},
				"down": {"uv": [1, 0, 0, 1], "texture": "#2"}
			}
		},
		{
			"from": [22.86, 8.5, 7.6],
			"to": [23.1416, 8.7816, 7.8816],
			"faces": {
				"north": {"uv": [0, 0, 1, 1], "texture": "#2"},
				"east": {"uv": [0, 0, 1, 1], "texture": "#2"},
				"south": {"uv": [0, 0, 1, 1], "texture": "#2"},
				"west": {"uv": [0, 0, 1, 1], "texture": "#2"},
				"up": {"uv": [0, 0, 1, 1], "texture": "#2"},
				"down": {"uv": [0, 0, 1, 1], "texture": "#2"}
			}
		},
		{
			"from": [-7.1416, 8.5, 7.6],
			"to": [-6.86, 8.7816, 7.8816],
			"faces": {
				"north": {"uv": [1, 0, 0, 1], "texture": "#2"},
				"east": {"uv": [1, 0, 0, 1], "texture": "#2"},
				"south": {"uv": [1, 0, 0, 1], "texture": "#2"},
				"west": {"uv": [1, 0, 0, 1], "texture": "#2"},
				"up": {"uv": [1, 0, 0, 1], "texture": "#2"},
				"down": {"uv": [1, 0, 0, 1], "texture": "#2"}
			}
		},
		{
			"from": [22.86, 8.5, 4.6],
			"to": [23.1416, 8.7816, 4.8816],
			"faces": {
				"north": {"uv": [0, 0, 1, 1], "texture": "#2"},
				"east": {"uv": [0, 0, 1, 1], "texture": "#2"},
				"south": {"uv": [0, 0, 1, 1], "texture": "#2"},
				"west": {"uv": [0, 0, 1, 1], "texture": "#2"},
				"up": {"uv": [0, 0, 1, 1], "texture": "#2"},
				"down": {"uv": [0, 0, 1, 1], "texture": "#2"}
			}
		},
		{
			"from": [-7.1416, 8.5, 4.6],
			"to": [-6.86, 8.7816, 4.8816],
			"faces": {
				"north": {"uv": [1, 0, 0, 1], "texture": "#2"},
				"east": {"uv": [1, 0, 0, 1], "texture": "#2"},
				"south": {"uv": [1, 0, 0, 1], "texture": "#2"},
				"west": {"uv": [1, 0, 0, 1], "texture": "#2"},
				"up": {"uv": [1, 0, 0, 1], "texture": "#2"},
				"down": {"uv": [1, 0, 0, 1], "texture": "#2"}
			}
		},
		{
			"from": [22.86, 8.2, -0.5],
			"to": [23.1416, 8.4816, -0.2184],
			"rotation": {"angle": -45, "axis": "x", "origin": [24.5968, 10.8848, 1.3792]},
			"faces": {
				"north": {"uv": [0, 0, 1, 1], "texture": "#2"},
				"east": {"uv": [0, 0, 1, 1], "texture": "#2"},
				"south": {"uv": [0, 0, 1, 1], "texture": "#2"},
				"west": {"uv": [0, 0, 1, 1], "texture": "#2"},
				"up": {"uv": [0, 0, 1, 1], "texture": "#2"},
				"down": {"uv": [0, 0, 1, 1], "texture": "#2"}
			}
		},
		{
			"from": [-7.1416, 8.2, -0.5],
			"to": [-6.86, 8.4816, -0.2184],
			"rotation": {"angle": -45, "axis": "x", "origin": [-8.5968, 10.8848, 1.3792]},
			"faces": {
				"north": {"uv": [1, 0, 0, 1], "texture": "#2"},
				"east": {"uv": [1, 0, 0, 1], "texture": "#2"},
				"south": {"uv": [1, 0, 0, 1], "texture": "#2"},
				"west": {"uv": [1, 0, 0, 1], "texture": "#2"},
				"up": {"uv": [1, 0, 0, 1], "texture": "#2"},
				"down": {"uv": [1, 0, 0, 1], "texture": "#2"}
			}
		}
	],
	"display": {
		"thirdperson_righthand": {
			"rotation": [0, -0.5, 0]
		},
		"firstperson_righthand": {
			"scale": [0.5, 0.5, 0.5]
		},
		"firstperson_lefthand": {
			"scale": [0.5, 0.5, 0.5]
		},
		"gui": {
			"rotation": [15, 149, 0],
			"scale": [0.4, 0.4, 0.4]
		},
		"head": {
			"translation": [-0.75, 0, 0],
			"scale": [2, 2, 2]
		},
		"fixed": {
			"rotation": [-90, 0, 0],
			"translation": [-15.75, 0, 17],
			"scale": [2, 2, 2]
		}
	},
	"groups": [
		{
			"name": "group",
			"origin": [8, 8, 8],
			"children": [
				{
					"name": "Arm",
					"origin": [8, 8, 8],
					"children": [0, 1, 2, 3, 4, 5, 6, 7, 8, 9, 10, 11, 12]
				},
				{
					"name": "Arm",
					"origin": [8, 8, 8],
					"children": [13, 14, 15, 16, 17, 18, 19, 20, 21, 22, 23, 24, 25]
				},
				{
					"name": "Leg",
					"origin": [23, 2.5, 5],
					"children": [26, 27, 28, 29, 30, 31, 32, 33, 34, 35, 36, 37, 38, 39, 40, 41, 42]
				},
				{
					"name": "Leg",
					"origin": [23, 2.5, 5],
					"children": [43, 44, 45, 46, 47, 48, 49, 50, 51, 52, 53, 54, 55, 56, 57, 58, 59]
				},
				{
					"name": "Leg",
					"origin": [23, 2.5, 5],
					"children": [60, 61, 62, 63, 64, 65, 66, 67, 68, 69, 70, 71, 72, 73, 74, 75, 76]
				},
				{
					"name": "Frame",
					"origin": [8, 8, 8],
					"children": [77, 78, 79, 80, 81, 82, 83, 84, 85, 86, 87, 88, 89, 90, 91]
				}
			]
		},
		{
			"name": "wood",
			"origin": [8, 8, 8],
			"children": [92, 93, 94, 95, 96, 97, 98, 99]
		},
		{
			"name": "Nails",
			"origin": [24.5968, 10.8848, 11.3792],
			"children": [100, 101, 102, 103, 104, 105, 106, 107, 108, 109, 110, 111, 112, 113, 114, 115, 116, 117, 118, 119, 120, 121, 122, 123, 124, 125, 126, 127, 128, 129, 130, 131]
		}
	]
}