{
	"credit": "Credit: Ontvlambaar, Sammie_gaga",
	"textures": {
		"0": "block/gray_concrete",
		"1": "misc/reg_screen",
		"particle": "./block/gray_concrete"
	},
	"elements": [
		{
			"from": [0, 4, 0],
			"to": [16, 14, 1],
			"rotation": {"angle": 22.5, "axis": "x", "origin": [0, 0, 0]},
			"faces": {
				"north": {"uv": [0, 0, 16, 10], "texture": "#0"},
				"east": {"uv": [0, 0, 1, 10], "texture": "#0"},
				"south": {"uv": [0, 0, 16, 10], "texture": "#0"},
				"west": {"uv": [0, 0, 1, 10], "texture": "#0"},
				"up": {"uv": [0, 0, 16, 1], "texture": "#0"},
				"down": {"uv": [0, 0, 16, 1], "texture": "#0"}
			}
		},
		{
			"from": [1.4, 6.9, 1],
			"to": [14.7, 12.2, 1.5],
			"rotation": {"angle": 22.5, "axis": "x", "origin": [0, 0, 0]},
			"faces": {
				"north": {"uv": [0, 0, 13.3, 5.3], "texture": "#0"},
				"east": {"uv": [0, 0, 0.5, 5.3], "texture": "#0"},
				"south": {"uv": [0, 0, 13.3, 5.3], "texture": "#0"},
				"west": {"uv": [0, 0, 0.5, 5.3], "texture": "#0"},
				"up": {"uv": [0, 0, 13.3, 0.5], "texture": "#0"},
				"down": {"uv": [0, 0, 13.3, 0.5], "texture": "#0"}
			}
		},
		{
			"from": [2.4, 0.1, 2],
			"to": [13.7, 0.4, 6.5],
			"faces": {
				"north": {"uv": [0, 0, 11.3, 0.3], "texture": "#0"},
				"east": {"uv": [0, 0, 4.5, 0.3], "texture": "#0"},
				"south": {"uv": [0, 0, 11.3, 0.3], "texture": "#0"},
				"west": {"uv": [0, 0, 4.5, 0.3], "texture": "#0"},
				"up": {"uv": [0, 0, 11.3, 4.5], "texture": "#0"},
				"down": {"uv": [0, 0, 11.3, 4.5], "texture": "#0"}
			}
		},
		{
			"from": [5.4, 0.4, 5],
			"to": [10.7, 9.4, 5.5],
			"faces": {
				"north": {"uv": [0, 0, 5.3, 9], "texture": "#0"},
				"east": {"uv": [0, 0, 0.5, 9], "texture": "#0"},
				"south": {"uv": [0, 0, 5.3, 9], "texture": "#0"},
				"west": {"uv": [0, 0, 0.5, 9], "texture": "#0"},
				"up": {"uv": [0, 0, 5.3, 0.5], "texture": "#0"},
				"down": {"uv": [0, 0, 5.3, 0.5], "texture": "#0"}
			}
		},
		{
			"from": [0.6, 4.3, -0.1],
			"to": [15.5, 13.6, 0],
			"rotation": {"angle": 22.5, "axis": "x", "origin": [0, 0, 0]},
			"faces": {
				"north": {"uv": [0, 0, 16, 16], "texture": "#1"},
				"east": {"uv": [0, 0, 0.1, 9.3], "texture": "#1"},
				"south": {"uv": [0, 0, 14.9, 9.3], "texture": "#1"},
				"west": {"uv": [0, 0, 0, 16], "texture": "#1"},
				"up": {"uv": [0, 0, 14.9, 0.1], "texture": "#1"},
				"down": {"uv": [0, 0, 14.9, 0.1], "texture": "#1"}
			}
		}
	],
	"display": {
		"thirdperson_righthand": {
			"translation": [0, 0, 2],
			"scale": [0.7, 0.7, 0.7]
		},
		"thirdperson_lefthand": {
			"translation": [0, 0, 2],
			"scale": [0.7, 0.7, 0.7]
		},
		"firstperson_righthand": {
			"rotation": [0, 120, 0],
			"translation": [3, 2, 0]
		},
		"firstperson_lefthand": {
			"rotation": [0, 120, 0],
			"translation": [3, 2, 0]
		},
		"ground": {
			"translation": [0, 5.5, 0]
		},
		"gui": {
			"rotation": [12, 151, 0],
			"translation": [2, 1, 0],
			"scale": [0.8, 0.8, 0.8]
		},
		"head": {
			"translation": [0, 5.75, 3],
			"scale": [1.3, 1.3, 1.3]
		},
		"fixed": {
			"rotation": [-90, 0, 0],
			"translation": [0, 3, -13],
			"scale": [1.6, 1.6, 1.6]
		}
	}
}