{
	"credit": "Credit: Ontvlambaar, Sammie_gaga",
	"textures": {
		"8": "misc/coke",
		"9": "misc/fanta",
		"10": "misc/pepsi",
		"11": "misc/sprite",
		"particle": "misc/coke",
		"texture": "block/anvil",
		"texture1": "block/smooth_stone",
		"texture2": "block/red_terracotta",
		"texture3": "block/blue_concrete",
		"texture4": "block/yellow_concrete",
		"texture5": "block/lime_concrete",
		"texture6": "block/white_concrete"
	},
	"elements": [
		{
			"from": [-0.5, 7, -0.25],
			"to": [0.5, 13, 16.25],
			"faces": {
				"north": {"uv": [15.5, 3, 16, 9], "texture": "#texture1"},
				"east": {"uv": [0, 6, 16, 14], "texture": "#texture1"},
				"south": {"uv": [0, 3, 0.5, 9], "texture": "#texture1"},
				"west": {"uv": [0, 6, 16, 12], "texture": "#texture1"},
				"up": {"uv": [0, 0, 0.5, 16], "texture": "#texture1"},
				"down": {"uv": [0, 0, 0.5, 16], "texture": "#texture1"}
			}
		},
		{
			"from": [-0.5, 14, 15],
			"to": [2, 16.5, 16.25],
			"rotation": {"angle": 0, "axis": "y", "origin": [8, 8, 23]},
			"faces": {
				"north": {"uv": [14, 0, 16, 2], "texture": "#texture1"},
				"east": {"uv": [0, 5, 1, 7], "texture": "#texture1"},
				"south": {"uv": [0, 0, 2, 2], "texture": "#texture1"},
				"west": {"uv": [0, 10, 1, 12], "texture": "#texture1"},
				"up": {"uv": [0, 0, 2, 16], "texture": "#texture1"},
				"down": {"uv": [3, 0, 5.5, 1.25], "texture": "#texture1"}
			}
		},
		{
			"from": [-0.5, 14, -0.25],
			"to": [2, 16.5, 1],
			"faces": {
				"north": {"uv": [14, 0, 16, 2], "texture": "#texture1"},
				"east": {"uv": [0, 5, 1, 7], "texture": "#texture1"},
				"south": {"uv": [0, 0, 2, 2], "texture": "#texture1"},
				"west": {"uv": [0, 12, 1, 14], "texture": "#texture1"},
				"up": {"uv": [0, 0, 2, 16], "texture": "#texture1"},
				"down": {"uv": [0, 0, 2.5, 1.25], "texture": "#texture1"}
			}
		},
		{
			"from": [-0.5, 14, 1],
			"to": [2, 14.7, 15],
			"rotation": {"angle": 0, "axis": "y", "origin": [8, 8, 22]},
			"faces": {
				"north": {"uv": [14, 0, 16, 2], "texture": "#texture1"},
				"east": {"uv": [1, 14, 15, 16], "texture": "#texture1"},
				"south": {"uv": [0, 0, 2, 2], "texture": "#texture1"},
				"west": {"uv": [1, 14, 15, 16], "texture": "#texture1"},
				"up": {"uv": [0, 0, 2, 16], "texture": "#texture1"},
				"down": {"uv": [4, 0, 6, 16], "texture": "#texture1"}
			}
		},
		{
			"from": [-0.5, 16.5, 0.5],
			"to": [1.5, 18, 1],
			"faces": {
				"north": {"uv": [14.5, 14, 16, 15.5], "texture": "#texture1"},
				"east": {"uv": [15, 14, 15.5, 15.5], "texture": "#texture1"},
				"south": {"uv": [0, 14, 1.5, 15.5], "texture": "#texture1"},
				"west": {"uv": [0.5, 14, 1, 15.5], "texture": "#texture1"},
				"up": {"uv": [0, 0.5, 1.5, 1], "texture": "#texture1"},
				"down": {"uv": [0, 15, 1.5, 15.5], "texture": "#texture1"}
			}
		},
		{
			"from": [-0.5, 16.5, 15],
			"to": [1.5, 18, 15.5],
			"faces": {
				"north": {"uv": [14.5, 14, 16, 15.5], "texture": "#texture1"},
				"east": {"uv": [0.5, 14, 1, 15.5], "texture": "#texture1"},
				"south": {"uv": [0, 14, 1.5, 15.5], "texture": "#texture1"},
				"west": {"uv": [15, 14, 15.5, 15.5], "texture": "#texture1"},
				"up": {"uv": [0, 15, 1.5, 15.5], "texture": "#texture1"},
				"down": {"uv": [0, 0.5, 1.5, 1], "texture": "#texture1"}
			}
		},
		{
			"from": [-0.5, 18, 1],
			"to": [1.5, 18.532, 1.5],
			"faces": {
				"north": {"uv": [14.5, 13.468, 16, 14], "texture": "#texture1"},
				"east": {"uv": [14.5, 13.468, 15, 14], "texture": "#texture1"},
				"south": {"uv": [0, 13.468, 1.5, 14], "texture": "#texture1"},
				"west": {"uv": [1, 13.468, 1.5, 14], "texture": "#texture1"},
				"up": {"uv": [0, 1, 1.5, 1.5], "texture": "#texture1"},
				"down": {"uv": [0, 14.5, 1.5, 15], "texture": "#texture1"}
			}
		},
		{
			"from": [-0.5, 18.5, 1.5],
			"to": [1.5, 19.032, 2.5],
			"faces": {
				"north": {"uv": [14.5, 12.968, 16, 13.5], "texture": "#texture1"},
				"east": {"uv": [13.5, 12.968, 14.5, 13.5], "texture": "#texture1"},
				"south": {"uv": [0, 12.968, 1.5, 13.5], "texture": "#texture1"},
				"west": {"uv": [1.5, 12.968, 2.5, 13.5], "texture": "#texture1"},
				"up": {"uv": [0, 1.5, 1.5, 2.5], "texture": "#texture1"},
				"down": {"uv": [0, 13.5, 1.5, 14.5], "texture": "#texture1"}
			}
		},
		{
			"from": [-0.5, 19, 2.5],
			"to": [1.5, 19.532, 4],
			"faces": {
				"north": {"uv": [14.5, 12.468, 16, 13], "texture": "#texture1"},
				"east": {"uv": [12, 12.468, 13.5, 13], "texture": "#texture1"},
				"south": {"uv": [0, 12.468, 1.5, 13], "texture": "#texture1"},
				"west": {"uv": [2.5, 12.468, 4, 13], "texture": "#texture1"},
				"up": {"uv": [0, 2.5, 1.5, 4], "texture": "#texture1"},
				"down": {"uv": [0, 12, 1.5, 13.5], "texture": "#texture1"}
			}
		},
		{
			"from": [-0.5, 18.5, 13.5],
			"to": [1.5, 19.032, 14.5],
			"faces": {
				"north": {"uv": [14.5, 12.968, 16, 13.5], "texture": "#texture1"},
				"east": {"uv": [1.5, 12.968, 2.5, 13.5], "texture": "#texture1"},
				"south": {"uv": [0, 12.968, 1.5, 13.5], "texture": "#texture1"},
				"west": {"uv": [13.5, 12.968, 14.5, 13.5], "texture": "#texture1"},
				"up": {"uv": [0, 13.5, 1.5, 14.5], "texture": "#texture1"},
				"down": {"uv": [0, 1.5, 1.5, 2.5], "texture": "#texture1"}
			}
		},
		{
			"from": [-0.5, 18, 14.5],
			"to": [1.5, 18.532, 15],
			"faces": {
				"north": {"uv": [14.5, 13.468, 16, 14], "texture": "#texture1"},
				"east": {"uv": [1, 13.468, 1.5, 14], "texture": "#texture1"},
				"south": {"uv": [0, 13.468, 1.5, 14], "texture": "#texture1"},
				"west": {"uv": [14.5, 13.468, 15, 14], "texture": "#texture1"},
				"up": {"uv": [0, 14.5, 1.5, 15], "texture": "#texture1"},
				"down": {"uv": [0, 1, 1.5, 1.5], "texture": "#texture1"}
			}
		},
		{
			"from": [-0.5, 19, 12],
			"to": [1.5, 19.532, 13.5],
			"faces": {
				"north": {"uv": [14.5, 12.468, 16, 13], "texture": "#texture1"},
				"east": {"uv": [2.5, 12.468, 4, 13], "texture": "#texture1"},
				"south": {"uv": [0, 12.468, 1.5, 13], "texture": "#texture1"},
				"west": {"uv": [12, 12.468, 13.5, 13], "texture": "#texture1"},
				"up": {"uv": [0, 12, 1.5, 13.5], "texture": "#texture1"},
				"down": {"uv": [0, 2.5, 1.5, 4], "texture": "#texture1"}
			}
		},
		{
			"from": [-0.5, 19.5, 4],
			"to": [1.5, 20.032, 6],
			"faces": {
				"north": {"uv": [14.5, 11.968, 16, 12.5], "texture": "#texture1"},
				"east": {"uv": [10, 11.968, 12, 12.5], "texture": "#texture1"},
				"south": {"uv": [0, 11.968, 1.5, 12.5], "texture": "#texture1"},
				"west": {"uv": [4, 11.968, 6, 12.5], "texture": "#texture1"},
				"up": {"uv": [0, 4, 1.5, 6], "texture": "#texture1"},
				"down": {"uv": [0, 10, 1.5, 12], "texture": "#texture1"}
			}
		},
		{
			"from": [-0.5, 19.5, 10],
			"to": [1.5, 20.032, 12],
			"faces": {
				"north": {"uv": [14.5, 11.968, 16, 12.5], "texture": "#texture1"},
				"east": {"uv": [4, 11.968, 6, 12.5], "texture": "#texture1"},
				"south": {"uv": [0, 11.968, 1.5, 12.5], "texture": "#texture1"},
				"west": {"uv": [10, 11.968, 12, 12.5], "texture": "#texture1"},
				"up": {"uv": [0, 10, 1.5, 12], "texture": "#texture1"},
				"down": {"uv": [0, 4, 1.5, 6], "texture": "#texture1"}
			}
		},
		{
			"from": [-0.5, 20, 6],
			"to": [1.5, 20.532, 10],
			"faces": {
				"north": {"uv": [14.5, 11.468, 16, 12], "texture": "#texture1"},
				"east": {"uv": [6, 11.468, 10, 12], "texture": "#texture1"},
				"south": {"uv": [0, 11.468, 1.5, 12], "texture": "#texture1"},
				"west": {"uv": [6, 11.468, 10, 12], "texture": "#texture1"},
				"up": {"uv": [0, 6, 1.5, 10], "texture": "#texture1"},
				"down": {"uv": [0, 6, 1.5, 10], "texture": "#texture1"}
			}
		},
		{
			"from": [0, 18, 1.5],
			"to": [0.5, 18.5, 2.5],
			"faces": {
				"north": {"uv": [15, 13.5, 15.5, 15.5], "texture": "#texture2"},
				"east": {"uv": [13.5, 13.5, 14.5, 15.5], "texture": "#texture2"},
				"south": {"uv": [0.5, 13.5, 1, 15.5], "texture": "#texture2"},
				"west": {"uv": [1.5, 13.5, 2.5, 15.5], "texture": "#texture2"},
				"up": {"uv": [0.5, 1.5, 1, 2.5], "texture": "#texture2"},
				"down": {"uv": [0.5, 13.5, 1, 14.5], "texture": "#texture2"}
			}
		},
		{
			"from": [0, 18, 2.5],
			"to": [0.5, 19, 4],
			"faces": {
				"north": {"uv": [15, 13, 15.5, 15.5], "texture": "#texture2"},
				"east": {"uv": [12, 13, 13.5, 15.5], "texture": "#texture2"},
				"south": {"uv": [0.5, 13, 1, 15.5], "texture": "#texture2"},
				"west": {"uv": [2.5, 13, 4, 15.5], "texture": "#texture2"},
				"up": {"uv": [0.5, 2.5, 1, 4], "texture": "#texture2"},
				"down": {"uv": [0.5, 12, 1, 13.5], "texture": "#texture2"}
			}
		},
		{
			"from": [0, 18, 4],
			"to": [0.5, 19.5, 6],
			"faces": {
				"north": {"uv": [15, 12.5, 15.5, 15.5], "texture": "#texture2"},
				"east": {"uv": [10, 12.5, 12, 15.5], "texture": "#texture2"},
				"south": {"uv": [0.5, 12.5, 1, 15.5], "texture": "#texture2"},
				"west": {"uv": [4, 12.5, 6, 15.5], "texture": "#texture2"},
				"up": {"uv": [0.5, 4, 1, 6], "texture": "#texture2"},
				"down": {"uv": [0.5, 10, 1, 12], "texture": "#texture2"}
			}
		},
		{
			"from": [0, 18, 6],
			"to": [0.5, 20, 10],
			"faces": {
				"north": {"uv": [15, 12, 15.5, 15.5], "texture": "#texture2"},
				"east": {"uv": [6, 12, 10, 15.5], "texture": "#texture2"},
				"south": {"uv": [0.5, 12, 1, 15.5], "texture": "#texture2"},
				"west": {"uv": [6, 12, 10, 15.5], "texture": "#texture2"},
				"up": {"uv": [0.5, 6, 1, 10], "texture": "#texture2"},
				"down": {"uv": [0.5, 6, 1, 10], "texture": "#texture2"}
			}
		},
		{
			"from": [0, 18, 10],
			"to": [0.5, 19.5, 12],
			"faces": {
				"north": {"uv": [15, 12.5, 15.5, 15.5], "texture": "#texture2"},
				"east": {"uv": [4, 12.5, 6, 15.5], "texture": "#texture2"},
				"south": {"uv": [0.5, 12.5, 1, 15.5], "texture": "#texture2"},
				"west": {"uv": [10, 12.5, 12, 15.5], "texture": "#texture2"},
				"up": {"uv": [0.5, 10, 1, 12], "texture": "#texture2"},
				"down": {"uv": [0.5, 4, 1, 6], "texture": "#texture2"}
			}
		},
		{
			"from": [0, 18, 12],
			"to": [0.5, 19, 13.5],
			"faces": {
				"north": {"uv": [15, 13, 15.5, 15.5], "texture": "#texture2"},
				"east": {"uv": [2.5, 13, 4, 15.5], "texture": "#texture2"},
				"south": {"uv": [0.5, 13, 1, 15.5], "texture": "#texture2"},
				"west": {"uv": [12, 13, 13.5, 15.5], "texture": "#texture2"},
				"up": {"uv": [0.5, 12, 1, 13.5], "texture": "#texture2"},
				"down": {"uv": [0.5, 2.5, 1, 4], "texture": "#texture2"}
			}
		},
		{
			"from": [0, 18, 13.5],
			"to": [0.5, 18.5, 14.5],
			"faces": {
				"north": {"uv": [15, 13.5, 15.5, 15.5], "texture": "#texture2"},
				"east": {"uv": [1.5, 13.5, 2.5, 15.5], "texture": "#texture2"},
				"south": {"uv": [0.5, 13.5, 1, 15.5], "texture": "#texture2"},
				"west": {"uv": [13.5, 13.5, 14.5, 15.5], "texture": "#texture2"},
				"up": {"uv": [0.5, 13.5, 1, 14.5], "texture": "#texture2"},
				"down": {"uv": [0.5, 1.5, 1, 2.5], "texture": "#texture2"}
			}
		},
		{
			"from": [0, 14.75, 1],
			"to": [0.5, 18, 15],
			"faces": {
				"north": {"uv": [15, 14, 15.5, 15.5], "texture": "#texture2"},
				"east": {"uv": [1, 11, 15, 14], "texture": "#texture2"},
				"south": {"uv": [0.5, 14, 1, 15.5], "texture": "#texture2"},
				"west": {"uv": [0, 10, 14, 13], "texture": "#texture2"},
				"up": {"uv": [0.5, 14.5, 1, 15], "texture": "#texture2"},
				"down": {"uv": [0.5, 1, 1, 1.5], "texture": "#texture2"}
			}
		},
		{
			"from": [-0.75, 8.75, 4.5],
			"to": [-0.5, 12.5, 7.5],
			"faces": {
				"north": {"uv": [0.5, 3.5, 1, 5], "texture": "#texture5"},
				"east": {"uv": [8.5, 3.5, 11.5, 5], "texture": "#texture5"},
				"south": {"uv": [15, 3.5, 15.5, 5], "texture": "#texture5"},
				"west": {"uv": [4.5, 3.5, 7.5, 5], "texture": "#texture5"},
				"up": {"uv": [15, 4.5, 15.5, 7.5], "texture": "#texture5"},
				"down": {"uv": [15, 8.5, 15.5, 11.5], "texture": "#texture5"}
			}
		},
		{
			"from": [-0.75, 8.75, 8.5],
			"to": [-0.5, 12.5, 11.5],
			"faces": {
				"north": {"uv": [0.5, 3.5, 1, 4], "texture": "#texture4"},
				"east": {"uv": [4.5, 3.5, 7.5, 4], "texture": "#texture4"},
				"south": {"uv": [15, 3.5, 15.5, 4], "texture": "#texture4"},
				"west": {"uv": [8.5, 3.5, 11.5, 4], "texture": "#texture4"},
				"up": {"uv": [15, 8.5, 15.5, 11.5], "texture": "#texture4"},
				"down": {"uv": [15, 4.5, 15.5, 7.5], "texture": "#texture4"}
			}
		},
		{
			"from": [-0.75, 8.75, 12.5],
			"to": [-0.5, 12.5, 15.5],
			"faces": {
				"north": {"uv": [0.5, 3.5, 1, 5], "texture": "#texture3"},
				"east": {"uv": [8.5, 3.5, 11.5, 5], "texture": "#texture3"},
				"south": {"uv": [15, 3.5, 15.5, 5], "texture": "#texture3"},
				"west": {"uv": [4.5, 3.5, 7.5, 5], "texture": "#texture3"},
				"up": {"uv": [15, 4.5, 15.5, 7.5], "texture": "#texture3"},
				"down": {"uv": [15, 8.5, 15.5, 11.5], "texture": "#texture3"}
			}
		},
		{
			"from": [-0.75, 8.75, 0.5],
			"to": [-0.5, 12.5, 3.5],
			"faces": {
				"north": {"uv": [0.5, 7, 1, 8.5], "texture": "#texture2"},
				"east": {"uv": [15, 7, 15.5, 8.5], "texture": "#texture2"},
				"south": {"uv": [15, 7, 15.5, 8.5], "texture": "#texture2"},
				"west": {"uv": [0.5, 7, 1, 8.5], "texture": "#texture2"},
				"up": {"uv": [15, 0.5, 15.5, 1], "texture": "#texture2"},
				"down": {"uv": [15, 15, 15.5, 15.5], "texture": "#texture2"}
			}
		},
		{
			"from": [-0.76, 9, 0.75],
			"to": [-0.76, 11.75, 3.25],
			"rotation": {"angle": 0, "axis": "y", "origin": [7.75, 7.75, 8]},
			"faces": {
				"north": {"uv": [0.66667, 1.9, 1.16667, 3.4], "texture": "#8"},
				"east": {"uv": [15, 7, 15.5, 8.5], "texture": "#8"},
				"south": {"uv": [15, 7, 15.5, 8.5], "texture": "#8"},
				"west": {"uv": [0, 0, 16, 16], "texture": "#8"},
				"up": {"uv": [15, 0.5, 15.5, 1], "texture": "#8"},
				"down": {"uv": [15, 15, 15.5, 15.5], "texture": "#8"}
			}
		},
		{
			"from": [-0.76, 9.25, 4.5],
			"to": [-0.76, 11.75, 7.5],
			"rotation": {"angle": 0, "axis": "y", "origin": [7.75, 8.5, 12]},
			"faces": {
				"north": {"uv": [0.66667, 1.9, 1.16667, 3.4], "texture": "#8"},
				"east": {"uv": [15, 7, 15.5, 8.5], "texture": "#8"},
				"south": {"uv": [15, 7, 15.5, 8.5], "texture": "#8"},
				"west": {"uv": [0, 0, 16, 16], "texture": "#11"},
				"up": {"uv": [15, 0.5, 15.5, 1], "texture": "#8"},
				"down": {"uv": [15, 15, 15.5, 15.5], "texture": "#8"}
			}
		},
		{
			"from": [-0.76, 9.25, 12.75],
			"to": [-0.76, 12, 15.25],
			"rotation": {"angle": 0, "axis": "y", "origin": [7.75, 8, 20]},
			"faces": {
				"north": {"uv": [0.66667, 1.9, 1.16667, 3.4], "texture": "#8"},
				"east": {"uv": [15, 7, 15.5, 8.5], "texture": "#8"},
				"south": {"uv": [15, 7, 15.5, 8.5], "texture": "#8"},
				"west": {"uv": [0, 0, 16, 16], "texture": "#10"},
				"up": {"uv": [15, 0.5, 15.5, 1], "texture": "#8"},
				"down": {"uv": [15, 15, 15.5, 15.5], "texture": "#8"}
			}
		},
		{
			"from": [-0.76, 9.25, 8.5],
			"to": [-0.76, 12, 11.5],
			"rotation": {"angle": 0, "axis": "y", "origin": [7.75, 7.5, 16]},
			"faces": {
				"north": {"uv": [0.66667, 1.9, 1.16667, 3.4], "texture": "#8"},
				"east": {"uv": [15, 7, 15.5, 8.5], "texture": "#8"},
				"south": {"uv": [15, 7, 15.5, 8.5], "texture": "#8"},
				"west": {"uv": [0, 0, 16, 16], "texture": "#9"},
				"up": {"uv": [15, 0.5, 15.5, 1], "texture": "#8"},
				"down": {"uv": [15, 15, 15.5, 15.5], "texture": "#8"}
			}
		},
		{
			"from": [-0.75, 7.5, 1.5],
			"to": [-0.5, 8.25, 2.5],
			"rotation": {"angle": 0, "axis": "y", "origin": [8, 3.75, 8]},
			"faces": {
				"north": {"uv": [0.5, 7, 1, 8.5], "texture": "#texture6"},
				"east": {"uv": [15, 7, 15.5, 8.5], "texture": "#texture6"},
				"south": {"uv": [15, 7, 15.5, 8.5], "texture": "#texture6"},
				"west": {"uv": [0.5, 7, 1, 8.5], "texture": "#texture6"},
				"up": {"uv": [15, 0.5, 15.5, 1], "texture": "#texture6"},
				"down": {"uv": [15, 15, 15.5, 15.5], "texture": "#texture6"}
			}
		},
		{
			"from": [-0.75, 7.5, 9.5],
			"to": [-0.5, 8.25, 10.5],
			"rotation": {"angle": 0, "axis": "y", "origin": [8, 3.75, 16]},
			"faces": {
				"north": {"uv": [0.5, 7, 1, 8.5], "texture": "#texture6"},
				"east": {"uv": [15, 7, 15.5, 8.5], "texture": "#texture6"},
				"south": {"uv": [15, 7, 15.5, 8.5], "texture": "#texture6"},
				"west": {"uv": [0.5, 7, 1, 8.5], "texture": "#texture6"},
				"up": {"uv": [15, 0.5, 15.5, 1], "texture": "#texture6"},
				"down": {"uv": [15, 15, 15.5, 15.5], "texture": "#texture6"}
			}
		},
		{
			"from": [-0.75, 7.5, 5.5],
			"to": [-0.5, 8.25, 6.5],
			"rotation": {"angle": 0, "axis": "y", "origin": [8, 3.75, 12]},
			"faces": {
				"north": {"uv": [0.5, 7, 1, 8.5], "texture": "#texture6"},
				"east": {"uv": [15, 7, 15.5, 8.5], "texture": "#texture6"},
				"south": {"uv": [15, 7, 15.5, 8.5], "texture": "#texture6"},
				"west": {"uv": [0.5, 7, 1, 8.5], "texture": "#texture6"},
				"up": {"uv": [15, 0.5, 15.5, 1], "texture": "#texture6"},
				"down": {"uv": [15, 15, 15.5, 15.5], "texture": "#texture6"}
			}
		},
		{
			"from": [-0.75, 7.5, 13.5],
			"to": [-0.5, 8.25, 14.5],
			"rotation": {"angle": 0, "axis": "y", "origin": [8, 3.75, 20]},
			"faces": {
				"north": {"uv": [0.5, 7, 1, 8.5], "texture": "#texture6"},
				"east": {"uv": [15, 7, 15.5, 8.5], "texture": "#texture6"},
				"south": {"uv": [15, 7, 15.5, 8.5], "texture": "#texture6"},
				"west": {"uv": [0.5, 7, 1, 8.5], "texture": "#texture6"},
				"up": {"uv": [15, 0.5, 15.5, 1], "texture": "#texture6"},
				"down": {"uv": [15, 15, 15.5, 15.5], "texture": "#texture6"}
			}
		},
		{
			"from": [-0.25, 15.75, 12.25],
			"to": [1.5, 17.782, 12.75],
			"rotation": {"angle": 0, "axis": "y", "origin": [8, 5.75, 19.25]},
			"faces": {
				"north": {"uv": [14.5, 13.468, 16, 14], "texture": "#texture1"},
				"east": {"uv": [14.5, 13.468, 15, 14], "texture": "#texture1"},
				"south": {"uv": [0, 13.468, 1.5, 14], "texture": "#texture1"},
				"west": {"uv": [1, 13.468, 1.5, 14], "texture": "#texture1"},
				"up": {"uv": [0, 1, 1.5, 1.5], "texture": "#texture1"},
				"down": {"uv": [0, 14.5, 1.5, 15], "texture": "#texture1"}
			}
		},
		{
			"from": [-0.25, 16.75, 11.25],
			"to": [1.5, 17.282, 12.25],
			"rotation": {"angle": 0, "axis": "y", "origin": [8, 5.25, 14.75]},
			"faces": {
				"north": {"uv": [14.5, 11.968, 16, 12.5], "texture": "#texture1"},
				"east": {"uv": [10, 11.968, 12, 12.5], "texture": "#texture1"},
				"south": {"uv": [0, 11.968, 1.5, 12.5], "texture": "#texture1"},
				"west": {"uv": [4, 11.968, 6, 12.5], "texture": "#texture1"},
				"up": {"uv": [0, 4, 1.5, 6], "texture": "#texture1"},
				"down": {"uv": [0, 10, 1.5, 12], "texture": "#texture1"}
			}
		},
		{
			"from": [-0.25, 15.75, 10.75],
			"to": [1.5, 17.782, 11.25],
			"rotation": {"angle": 0, "axis": "y", "origin": [8, 5.75, 17.75]},
			"faces": {
				"north": {"uv": [14.5, 13.468, 16, 14], "texture": "#texture1"},
				"east": {"uv": [14.5, 13.468, 15, 14], "texture": "#texture1"},
				"south": {"uv": [0, 13.468, 1.5, 14], "texture": "#texture1"},
				"west": {"uv": [1, 13.468, 1.5, 14], "texture": "#texture1"},
				"up": {"uv": [0, 1, 1.5, 1.5], "texture": "#texture1"},
				"down": {"uv": [0, 14.5, 1.5, 15], "texture": "#texture1"}
			}
		},
		{
			"from": [-0.25, 17.75, 11],
			"to": [1.5, 18.282, 12.5],
			"rotation": {"angle": 0, "axis": "y", "origin": [8, 6.25, 14.75]},
			"faces": {
				"north": {"uv": [14.5, 11.968, 16, 12.5], "texture": "#texture1"},
				"east": {"uv": [10, 11.968, 12, 12.5], "texture": "#texture1"},
				"south": {"uv": [0, 11.968, 1.5, 12.5], "texture": "#texture1"},
				"west": {"uv": [4, 11.968, 6, 12.5], "texture": "#texture1"},
				"up": {"uv": [0, 4, 1.5, 6], "texture": "#texture1"},
				"down": {"uv": [0, 10, 1.5, 12], "texture": "#texture1"}
			}
		},
		{
			"from": [-0.25, 16.25, 9.75],
			"to": [1.5, 17.782, 10.25],
			"rotation": {"angle": 0, "axis": "y", "origin": [8, 5.75, 16.75]},
			"faces": {
				"north": {"uv": [14.5, 13.468, 16, 14], "texture": "#texture1"},
				"east": {"uv": [14.5, 13.468, 15, 14], "texture": "#texture1"},
				"south": {"uv": [0, 13.468, 1.5, 14], "texture": "#texture1"},
				"west": {"uv": [1, 13.468, 1.5, 14], "texture": "#texture1"},
				"up": {"uv": [0, 1, 1.5, 1.5], "texture": "#texture1"},
				"down": {"uv": [0, 14.5, 1.5, 15], "texture": "#texture1"}
			}
		},
		{
			"from": [-0.25, 17.75, 8.25],
			"to": [1.5, 18.282, 9.75],
			"rotation": {"angle": 0, "axis": "y", "origin": [8, 6.25, 12.25]},
			"faces": {
				"north": {"uv": [14.5, 11.968, 16, 12.5], "texture": "#texture1"},
				"east": {"uv": [10, 11.968, 12, 12.5], "texture": "#texture1"},
				"south": {"uv": [0, 11.968, 1.5, 12.5], "texture": "#texture1"},
				"west": {"uv": [4, 11.968, 6, 12.5], "texture": "#texture1"},
				"up": {"uv": [0, 4, 1.5, 6], "texture": "#texture1"},
				"down": {"uv": [0, 10, 1.5, 12], "texture": "#texture1"}
			}
		},
		{
			"from": [-0.25, 16.25, 8.25],
			"to": [1.5, 17.782, 8.75],
			"rotation": {"angle": 0, "axis": "y", "origin": [8, 5.75, 15.25]},
			"faces": {
				"north": {"uv": [14.5, 13.468, 16, 14], "texture": "#texture1"},
				"east": {"uv": [14.5, 13.468, 15, 14], "texture": "#texture1"},
				"south": {"uv": [0, 13.468, 1.5, 14], "texture": "#texture1"},
				"west": {"uv": [1, 13.468, 1.5, 14], "texture": "#texture1"},
				"up": {"uv": [0, 1, 1.5, 1.5], "texture": "#texture1"},
				"down": {"uv": [0, 14.5, 1.5, 15], "texture": "#texture1"}
			}
		},
		{
			"from": [-0.25, 15.75, 8.25],
			"to": [1.5, 16.282, 9.75],
			"rotation": {"angle": 0, "axis": "y", "origin": [8, 4.25, 12.25]},
			"faces": {
				"north": {"uv": [14.5, 11.968, 16, 12.5], "texture": "#texture1"},
				"east": {"uv": [10, 11.968, 12, 12.5], "texture": "#texture1"},
				"south": {"uv": [0, 11.968, 1.5, 12.5], "texture": "#texture1"},
				"west": {"uv": [4, 11.968, 6, 12.5], "texture": "#texture1"},
				"up": {"uv": [0, 4, 1.5, 6], "texture": "#texture1"},
				"down": {"uv": [0, 10, 1.5, 12], "texture": "#texture1"}
			}
		},
		{
			"from": [-0.25, 15.75, 6.25],
			"to": [1.5, 16.282, 7.25],
			"rotation": {"angle": 0, "axis": "y", "origin": [8, 4.25, 9.75]},
			"faces": {
				"north": {"uv": [14.5, 11.968, 16, 12.5], "texture": "#texture1"},
				"east": {"uv": [10, 11.968, 12, 12.5], "texture": "#texture1"},
				"south": {"uv": [0, 11.968, 1.5, 12.5], "texture": "#texture1"},
				"west": {"uv": [4, 11.968, 6, 12.5], "texture": "#texture1"},
				"up": {"uv": [0, 4, 1.5, 6], "texture": "#texture1"},
				"down": {"uv": [0, 10, 1.5, 12], "texture": "#texture1"}
			}
		},
		{
			"from": [-0.25, 16.25, 5.75],
			"to": [1.5, 17.782, 6.25],
			"rotation": {"angle": 0, "axis": "y", "origin": [8, 5.75, 12.75]},
			"faces": {
				"north": {"uv": [14.5, 13.468, 16, 14], "texture": "#texture1"},
				"east": {"uv": [14.5, 13.468, 15, 14], "texture": "#texture1"},
				"south": {"uv": [0, 13.468, 1.5, 14], "texture": "#texture1"},
				"west": {"uv": [1, 13.468, 1.5, 14], "texture": "#texture1"},
				"up": {"uv": [0, 1, 1.5, 1.5], "texture": "#texture1"},
				"down": {"uv": [0, 14.5, 1.5, 15], "texture": "#texture1"}
			}
		},
		{
			"from": [-0.25, 17.75, 6.25],
			"to": [1.5, 18.282, 7.25],
			"rotation": {"angle": 0, "axis": "y", "origin": [8, 6.25, 9.75]},
			"faces": {
				"north": {"uv": [14.5, 11.968, 16, 12.5], "texture": "#texture1"},
				"east": {"uv": [10, 11.968, 12, 12.5], "texture": "#texture1"},
				"south": {"uv": [0, 11.968, 1.5, 12.5], "texture": "#texture1"},
				"west": {"uv": [4, 11.968, 6, 12.5], "texture": "#texture1"},
				"up": {"uv": [0, 4, 1.5, 6], "texture": "#texture1"},
				"down": {"uv": [0, 10, 1.5, 12], "texture": "#texture1"}
			}
		},
		{
			"from": [-0.25, 16.25, 7.25],
			"to": [1.5, 17.782, 7.75],
			"rotation": {"angle": 0, "axis": "y", "origin": [8, 5.75, 14.25]},
			"faces": {
				"north": {"uv": [14.5, 13.468, 16, 14], "texture": "#texture1"},
				"east": {"uv": [14.5, 13.468, 15, 14], "texture": "#texture1"},
				"south": {"uv": [0, 13.468, 1.5, 14], "texture": "#texture1"},
				"west": {"uv": [1, 13.468, 1.5, 14], "texture": "#texture1"},
				"up": {"uv": [0, 1, 1.5, 1.5], "texture": "#texture1"},
				"down": {"uv": [0, 14.5, 1.5, 15], "texture": "#texture1"}
			}
		},
		{
			"from": [-0.25, 16.25, 4.75],
			"to": [1.5, 16.782, 5.25],
			"rotation": {"angle": 0, "axis": "y", "origin": [8, 6.25, 11.75]},
			"faces": {
				"north": {"uv": [14.5, 13.468, 16, 14], "texture": "#texture1"},
				"east": {"uv": [14.5, 13.468, 15, 14], "texture": "#texture1"},
				"south": {"uv": [0, 13.468, 1.5, 14], "texture": "#texture1"},
				"west": {"uv": [1, 13.468, 1.5, 14], "texture": "#texture1"},
				"up": {"uv": [0, 1, 1.5, 1.5], "texture": "#texture1"},
				"down": {"uv": [0, 14.5, 1.5, 15], "texture": "#texture1"}
			}
		},
		{
			"from": [-0.25, 15.75, 3.25],
			"to": [1.5, 16.282, 5],
			"rotation": {"angle": 0, "axis": "y", "origin": [8, 4.25, 7.25]},
			"faces": {
				"north": {"uv": [14.5, 11.968, 16, 12.5], "texture": "#texture1"},
				"east": {"uv": [10, 11.968, 12, 12.5], "texture": "#texture1"},
				"south": {"uv": [0, 11.968, 1.5, 12.5], "texture": "#texture1"},
				"west": {"uv": [4, 11.968, 6, 12.5], "texture": "#texture1"},
				"up": {"uv": [0, 4, 1.5, 6], "texture": "#texture1"},
				"down": {"uv": [0, 10, 1.5, 12], "texture": "#texture1"}
			}
		},
		{
			"from": [-0.25, 16.75, 3.5],
			"to": [1.5, 17.282, 5],
			"rotation": {"angle": 0, "axis": "y", "origin": [8, 5.25, 7.25]},
			"faces": {
				"north": {"uv": [14.5, 11.968, 16, 12.5], "texture": "#texture1"},
				"east": {"uv": [10, 11.968, 12, 12.5], "texture": "#texture1"},
				"south": {"uv": [0, 11.968, 1.5, 12.5], "texture": "#texture1"},
				"west": {"uv": [4, 11.968, 6, 12.5], "texture": "#texture1"},
				"up": {"uv": [0, 4, 1.5, 6], "texture": "#texture1"},
				"down": {"uv": [0, 10, 1.5, 12], "texture": "#texture1"}
			}
		},
		{
			"from": [-0.25, 17.25, 3.25],
			"to": [1.5, 17.782, 3.75],
			"rotation": {"angle": 0, "axis": "y", "origin": [8, 7.25, 10.25]},
			"faces": {
				"north": {"uv": [14.5, 13.468, 16, 14], "texture": "#texture1"},
				"east": {"uv": [14.5, 13.468, 15, 14], "texture": "#texture1"},
				"south": {"uv": [0, 13.468, 1.5, 14], "texture": "#texture1"},
				"west": {"uv": [1, 13.468, 1.5, 14], "texture": "#texture1"},
				"up": {"uv": [0, 1, 1.5, 1.5], "texture": "#texture1"},
				"down": {"uv": [0, 14.5, 1.5, 15], "texture": "#texture1"}
			}
		},
		{
			"from": [-0.25, 17.75, 3.5],
			"to": [1.5, 18.282, 5.25],
			"rotation": {"angle": 0, "axis": "y", "origin": [8, 6.25, 7.25]},
			"faces": {
				"north": {"uv": [14.5, 11.968, 16, 12.5], "texture": "#texture1"},
				"east": {"uv": [10, 11.968, 12, 12.5], "texture": "#texture1"},
				"south": {"uv": [0, 11.968, 1.5, 12.5], "texture": "#texture1"},
				"west": {"uv": [4, 11.968, 6, 12.5], "texture": "#texture1"},
				"up": {"uv": [0, 4, 1.5, 6], "texture": "#texture1"},
				"down": {"uv": [0, 10, 1.5, 12], "texture": "#texture1"}
			}
		},
		{
			"from": [-0.5, 0, 0],
			"to": [8, 1, 16],
			"faces": {
				"north": {"uv": [8, 15, 16, 16], "texture": "#texture1"},
				"east": {"uv": [0, 15, 16, 16], "texture": "#texture1"},
				"south": {"uv": [0, 15, 8, 16], "texture": "#texture1"},
				"west": {"uv": [0, 15, 16, 16], "texture": "#texture1"},
				"up": {"uv": [0, 0, 8, 16], "texture": "#texture1"},
				"down": {"uv": [0, 0, 8, 16], "texture": "#texture1"}
			}
		},
		{
			"from": [1.625, 5, 1.5],
			"to": [2.125, 8.5, 2.5],
			"rotation": {"angle": 0, "axis": "y", "origin": [4.875, 7, 5]},
			"faces": {
				"north": {"uv": [13.5, 7, 14.5, 12], "texture": "#texture"},
				"east": {"uv": [13, 7, 15, 12], "texture": "#texture"},
				"south": {"uv": [1.5, 7, 2.5, 12], "texture": "#texture"},
				"west": {"uv": [1, 7, 3, 12], "texture": "#texture"},
				"up": {"uv": [1.5, 1, 2.5, 3], "texture": "#texture"},
				"down": {"uv": [1.5, 13, 2.5, 15], "texture": "#texture"}
			}
		},
		{
			"from": [1.625, 5, 5.5],
			"to": [2.125, 8.5, 6.5],
			"rotation": {"angle": 0, "axis": "y", "origin": [4.875, 7, 9]},
			"faces": {
				"north": {"uv": [13.5, 7, 14.5, 12], "texture": "#texture"},
				"east": {"uv": [13, 7, 15, 12], "texture": "#texture"},
				"south": {"uv": [1.5, 7, 2.5, 12], "texture": "#texture"},
				"west": {"uv": [1, 7, 3, 12], "texture": "#texture"},
				"up": {"uv": [1.5, 1, 2.5, 3], "texture": "#texture"},
				"down": {"uv": [1.5, 13, 2.5, 15], "texture": "#texture"}
			}
		},
		{
			"from": [1.625, 5, 9.5],
			"to": [2.125, 8.5, 10.5],
			"rotation": {"angle": 0, "axis": "y", "origin": [4.875, 7, 13]},
			"faces": {
				"north": {"uv": [13.5, 7, 14.5, 12], "texture": "#texture"},
				"east": {"uv": [13, 7, 15, 12], "texture": "#texture"},
				"south": {"uv": [1.5, 7, 2.5, 12], "texture": "#texture"},
				"west": {"uv": [1, 7, 3, 12], "texture": "#texture"},
				"up": {"uv": [1.5, 1, 2.5, 3], "texture": "#texture"},
				"down": {"uv": [1.5, 13, 2.5, 15], "texture": "#texture"}
			}
		},
		{
			"from": [1.625, 5, 13.5],
			"to": [2.125, 8.5, 14.5],
			"rotation": {"angle": 0, "axis": "y", "origin": [4.875, 7, 17]},
			"faces": {
				"north": {"uv": [13.5, 7, 14.5, 12], "texture": "#texture"},
				"east": {"uv": [13, 7, 15, 12], "texture": "#texture"},
				"south": {"uv": [1.5, 7, 2.5, 12], "texture": "#texture"},
				"west": {"uv": [1, 7, 3, 12], "texture": "#texture"},
				"up": {"uv": [1.5, 1, 2.5, 3], "texture": "#texture"},
				"down": {"uv": [1.5, 13, 2.5, 15], "texture": "#texture"}
			}
		},
		{
			"from": [1.375, 5, 1.75],
			"to": [2.25, 8.5, 2.25],
			"rotation": {"angle": 0, "axis": "y", "origin": [4.875, 7, 5]},
			"faces": {
				"north": {"uv": [14.5, 6, 15, 11], "texture": "#texture"},
				"east": {"uv": [13.5, 6, 14.5, 11], "texture": "#texture"},
				"south": {"uv": [1, 6, 1.5, 11], "texture": "#texture"},
				"west": {"uv": [1.5, 6, 2.5, 11], "texture": "#texture"},
				"up": {"uv": [1, 1.5, 1.5, 2.5], "texture": "#texture"},
				"down": {"uv": [1, 13.5, 1.5, 14.5], "texture": "#texture"}
			}
		},
		{
			"from": [1.375, 5, 5.75],
			"to": [2.25, 8.5, 6.25],
			"rotation": {"angle": 0, "axis": "y", "origin": [4.875, 7, 9]},
			"faces": {
				"north": {"uv": [14.5, 6, 15, 11], "texture": "#texture"},
				"east": {"uv": [13.5, 6, 14.5, 11], "texture": "#texture"},
				"south": {"uv": [1, 6, 1.5, 11], "texture": "#texture"},
				"west": {"uv": [1.5, 6, 2.5, 11], "texture": "#texture"},
				"up": {"uv": [1, 1.5, 1.5, 2.5], "texture": "#texture"},
				"down": {"uv": [1, 13.5, 1.5, 14.5], "texture": "#texture"}
			}
		},
		{
			"from": [1.375, 5, 9.75],
			"to": [2.25, 8.5, 10.25],
			"rotation": {"angle": 0, "axis": "y", "origin": [4.875, 7, 13]},
			"faces": {
				"north": {"uv": [14.5, 6, 15, 11], "texture": "#texture"},
				"east": {"uv": [13.5, 6, 14.5, 11], "texture": "#texture"},
				"south": {"uv": [1, 6, 1.5, 11], "texture": "#texture"},
				"west": {"uv": [1.5, 6, 2.5, 11], "texture": "#texture"},
				"up": {"uv": [1, 1.5, 1.5, 2.5], "texture": "#texture"},
				"down": {"uv": [1, 13.5, 1.5, 14.5], "texture": "#texture"}
			}
		},
		{
			"from": [1.375, 5, 13.75],
			"to": [2.25, 8.5, 14.25],
			"rotation": {"angle": 0, "axis": "y", "origin": [4.875, 7, 17]},
			"faces": {
				"north": {"uv": [14.5, 6, 15, 11], "texture": "#texture"},
				"east": {"uv": [13.5, 6, 14.5, 11], "texture": "#texture"},
				"south": {"uv": [1, 6, 1.5, 11], "texture": "#texture"},
				"west": {"uv": [1.5, 6, 2.5, 11], "texture": "#texture"},
				"up": {"uv": [1, 1.5, 1.5, 2.5], "texture": "#texture"},
				"down": {"uv": [1, 13.5, 1.5, 14.5], "texture": "#texture"}
			}
		}
	],
	"display": {
		"firstperson_righthand": {
			"rotation": [0, 9, 0],
			"translation": [1.75, 3, 1.25],
			"scale": [0.5, 0.5, 0.5]
		},
		"firstperson_lefthand": {
			"rotation": [0, -167, 0],
			"translation": [1.75, 3, 1.25],
			"scale": [0.5, 0.5, 0.5]
		},
		"gui": {
			"rotation": [8, 67, 0],
			"translation": [1.25, -0.5, 0],
			"scale": [0.7, 0.7, 0.7]
		},
		"fixed": {
			"rotation": [0, -90, 0],
			"translation": [0, 0, 17.836],
			"scale": [2, 2, 2]
		}
	},
	"groups": [0, 1, 2, 3, 4, 5, 6, 7, 8, 9, 10, 11, 12, 13, 14, 15, 16, 17, 18, 19, 20, 21, 22,
		{
			"name": "Logo",
			"origin": [8, 8, 8],
			"children": [23, 24, 25, 26, 27, 28, 29, 30]
		},
		{
			"name": "Buttons",
			"origin": [8, 8, 8],
			"children": [31, 32, 33, 34]
		},
		{
			"name": "SODA",
			"origin": [8, 6.25, 7.25],
			"children": [35, 36, 37, 38, 39, 40, 41, 42, 43, 44, 45, 46, 47, 48, 49, 50, 51]
		},
		{
			"name": "Base",
			"origin": [8, 8, 8],
			"children": [52]
		},
		{
			"name": "Spouts",
			"origin": [7.75, 8, 8],
			"children": [53, 54, 55, 56, 57, 58, 59, 60]
		}
	]
}