{
	"parent": "item/generated",
	"textures": {
		"layer0": "item/paper"
	},
	"overrides": [
		{"predicate": {"custom_model_data":100010}, "model": "custom/decorations/bench"},
		{"predicate": {"custom_model_data":100011}, "model": "custom/decorations/emporium_sign"},
		{"predicate": {"custom_model_data":100012}, "model": "custom/decorations/loungefly_shop"},
		{"predicate": {"custom_model_data":100013}, "model": "custom/decorations/mm_halloween"},
		{"predicate": {"custom_model_data":100014}, "model": "custom/decorations/cash_register"},
		{"predicate": {"custom_model_data":100015}, "model": "custom/decorations/coffee_machine"},
		{"predicate": {"custom_model_data":100016}, "model": "custom/decorations/soda_machine"},
		{"predicate": {"custom_model_data":100017}, "model": "custom/decorations/ursula_arms"},
		{"predicate": {"custom_model_data":100018}, "model": "custom/decorations/ursula"}			
	]
}