{
	"parent": "minecraft:item/template_shulker_box",
	"textures": {
		"layer0": "minecraft:block/shulker_box"
	},
	"overrides": [
		{"predicate": {"custom_model_data":104010}, "model": "custom/bags/loungefly/autumn_backpack"},
		{"predicate": {"custom_model_data":104011}, "model": "custom/decorations/emporium_sign"},
		{"predicate": {"custom_model_data":104012}, "model": "custom/decorations/loungefly_shop"},
		{"predicate": {"custom_model_data":104013}, "model": "custom/decorations/mm_halloween"},
		{"predicate": {"custom_model_data":104014}, "model": "custom/decorations/cash_register"},
		{"predicate": {"custom_model_data":104015}, "model": "custom/decorations/coffee_machine"},
		{"predicate": {"custom_model_data":104016}, "model": "custom/decorations/soda_machine"},
		{"predicate": {"custom_model_data":104017}, "model": "custom/decorations/ursula_arms"},
		{"predicate": {"custom_model_data":104018}, "model": "custom/decorations/ursula"}			
	]
}