{
	"parent": "builtin/entity",
	"particle": "block/spruce_planks"
	},
	"overrides": [
		{"predicate": {"custom_model_data":102010}, "model": "custom/shields/cap_america_shield"},
		{"predicate": {"custom_model_data":102011}, "model": "custom/shields/knights_shield"}
	]
}